﻿bond_id,unfunded_year1,unfunded_year2,unfunded_year3,unfunded_year4,unfunded_year5,unfunded_year6,unfunded_year7,unfunded_year8,unfunded_year9,unfunded_year10,unfunded_year11,unfunded_year12,unfunded_year13,unfunded_year14,unfunded_year15,unfunded_year16,unfunded_year17,unfunded_year18,unfunded_year19,unfunded_year20,unfunded_year21,unfunded_year22,unfunded_year23,unfunded_year24,unfunded_year25
10001,0.361334183,0.393544112,0.761998298,0.544427969,0.733332156,0.937862776,0.985152602,0.547543778,0.801490041,0.076927052,0.970647642,0.961311438,0.7852808,0.389772369,0.345032894,0.403417114,0.692379437,0.541879445,0.600272022,0.582033467,0.1069192,0.566892184,0.423085016,0.744657261,0.537894555
10002,0.635544348,0.661945014,0.801362714,0.328382211,0.195616049,0.445737556,0.01106544,0.079483202,0.34706879,0.644336946,0.880812648,0.817469765,0.623838029,0.81887574,0.484595895,0.74179044,0.836500966,0.478875986,0.673585597,0.15597355,0.558209123,0.007946481,0.045196873,0.56805161,0.942982357
10003,0.101401058,0.139548915,0.606881711,0.922707356,0.928944919,0.022442399,0.76437342,0.334868257,0.520329191,0.578781042,0.191427485,0.491383202,0.478122158,0.201503197,0.876817015,0.356530856,0.976765716,0.008202919,0.750215665,0.102872084,0.101331264,0.689413141,0.763009488,0.549276588,0.95842787
10004,0.561770883,0.69747694,0.750484914,0.21854337,0.003314794,0.952778001,0.400552646,0.66883516,0.331852101,0.656715387,0.982150687,0.299236918,0.262906035,0.067644024,0.486606184,0.774015225,0.200562374,0.879960213,0.355850423,0.36516745,0.788766579,0.164887583,0.352498056,0.952415859,0.52130724
10005,0.451870228,0.506676056,0.143953092,0.498329514,0.446096691,0.524284781,0.720011055,0.563466515,0.155087491,0.010390436,0.895946515,0.485421877,0.359594471,0.674590394,0.019919747,0.425036635,0.398321121,0.153355878,0.809224342,0.821542142,0.344287395,0.138849103,0.272425024,0.25714685,0.874485948
10006,0.873448904,0.7246029,0.264207083,0.689402792,0.53684914,0.340810435,0.077189345,0.637709301,0.192446329,0.208074757,0.655215339,0.301133692,0.096259753,0.899351758,0.071073793,0.460891046,0.170408759,0.505133435,0.997139219,0.962815159,0.47260342,0.100368699,0.025773204,0.889354309,0.267610627
10007,0.191854558,0.904316137,0.309241998,0.26031,0.497469572,0.154233063,0.626088765,0.251036794,0.583218301,0.370574087,0.474908216,0.411629747,0.234734153,0.322298798,0.472188912,0.560985158,0.142240565,0.289139552,0.09487963,0.223698597,0.841803892,0.958159346,0.992896618,0.23683706,0.002786298
10008,0.999400423,0.830802959,0.202674084,0.681774066,0.010573425,0.728358956,0.617095238,0.566189539,0.704609648,0.740686832,0.843321458,0.206348672,0.649364822,0.240743125,0.121151645,0.575874374,0.887418437,0.409596471,0.767943756,0.046184042,0.705135276,0.803201826,0.645060317,0.708344158,0.445856174
10009,0.316446309,0.008154761,0.87567627,0.712684342,0.805940105,0.999735447,0.184259231,0.868074846,0.63803575,0.74822729,0.856919441,0.98750457,0.772304815,0.44492841,0.421775937,0.148299204,0.077103748,0.718184558,0.015462481,0.832708832,0.969507446,0.101252366,0.986982862,0.910574902,0.093960555
10010,0.247633356,0.039148038,0.999799389,0.982950258,0.54690832,0.386469326,0.867785373,0.06996266,0.775401853,0.609248237,0.974586089,0.308040594,0.088978184,0.241602612,0.173851303,0.971589925,0.658413438,0.704852999,0.838687576,0.685444762,0.800225767,0.350787148,0.306098579,0.219108475,0.147079721
10011,0.348072892,0.250463068,0.073488725,0.124850163,0.363059156,0.228653599,0.899460305,0.632722515,0.945852169,0.62847516,0.445981545,0.492530039,0.077443321,0.583580002,0.79993837,0.449675939,0.506418847,0.544307448,0.4480864,0.921157725,0.897466548,0.390731834,0.772512076,0.247340176,0.015304948
10012,0.656306588,0.952600506,0.370724807,0.830056454,0.018656664,0.66246599,0.480407811,0.70424744,0.558078008,0.805228735,0.065540008,0.889167552,0.774418074,0.930723726,0.509416544,0.872251085,0.233287691,0.342193721,0.919345914,0.146328291,0.26369134,0.304117181,0.966598332,0.114090565,0.048526374
10013,0.788431569,0.606987812,0.626813071,0.571474183,0.114331923,0.196726544,0.540103715,0.395834469,0.00165339,0.162359039,0.008115631,0.787541349,0.899373893,0.007572326,0.428402754,0.902696676,0.60400458,0.448663694,0.139502857,0.26338768,0.566404875,0.705359803,0.608573535,0.851285864,0.343132248
10014,0.72506014,0.75211427,0.569639753,0.682541565,0.058988432,0.128331122,0.131934564,0.1203448,0.651082466,0.178862654,0.048495279,0.311206459,0.284132558,0.586132823,0.245048517,0.338375306,0.085056592,0.886476651,0.905797163,0.422485988,0.129891309,0.752263289,0.02854973,0.189730281,0.972680801
10015,0.141007996,0.124406353,0.798993668,0.309541808,0.646583461,0.661006732,0.109855813,0.715174371,0.037093729,0.187206507,0.392261233,0.94710483,0.027875322,0.185258015,0.44805799,0.020268586,0.076119911,0.20837431,0.169453935,0.869010299,0.242922895,0.460913196,0.828396773,0.248386362,0.832255329
10016,0.39503917,0.771016972,0.809655428,0.218815404,0.11892566,0.307231165,0.901972412,0.644924714,0.662398017,0.381499711,0.827071241,0.773724507,0.337744826,0.757731432,0.680880133,0.670675812,0.342779908,0.859389006,0.206488473,0.402766258,0.961119257,0.634823706,0.393742204,0.641748153,0.957929663
10017,0.908439249,0.443575415,0.540116378,0.046163546,0.772540445,0.449730687,0.509630445,0.352218571,0.63735101,0.159917519,0.75553548,0.129314583,0.537711156,0.181602949,0.050123694,0.940297482,0.086035641,0.929912843,0.484619375,0.814202225,0.895325702,0.093678071,0.114376431,0.681992277,0.278799962
10018,0.928626737,0.372186648,0.150174118,0.176288424,0.845475661,0.409471107,0.754188984,0.109227924,0.328896887,0.160405432,0.002940533,0.240552519,0.871566462,0.74492248,0.977445936,0.146359474,0.086428263,0.850011075,0.331598546,0.076659755,0.572336509,0.960348526,0.620367494,0.345805485,0.253076537
10019,0.438278988,0.899384929,0.425184295,0.136896556,0.244871765,0.06833192,0.75864852,0.812736607,0.326371003,0.789769534,0.730883717,0.907823953,0.039262169,0.468686006,0.629879807,0.018165333,0.667610303,0.356367391,0.930690314,0.206191769,0.533837569,0.272190519,0.256758085,0.622738963,0.720783623
10020,0.573707303,0.43693908,0.924525416,0.217791612,0.085941276,0.642993054,0.449429066,0.638339202,0.605980098,0.032899544,0.596525942,0.709909537,0.991771893,0.195486784,0.322061894,0.758075279,0.739525675,0.402355854,0.314641497,0.231122009,0.403015145,0.90451323,0.201661365,0.499233399,0.884026229
10021,0.043279721,0.834822499,0.590092853,0.289258899,0.143838839,0.819453115,0.389227757,0.833768674,0.397989679,0.908804486,0.848265711,0.565965586,0.21304936,0.553499006,0.779518671,0.334580485,0.989090012,0.10791327,0.324771896,0.373676984,0.481080521,0.648643513,0.505320214,0.322512324,0.395072836
10022,0.149240985,0.137256589,0.029230978,0.75033679,0.494245222,0.187992053,0.437602951,0.224624879,0.253140006,0.254723554,0.907899693,0.236071698,0.630887204,0.935850071,0.034306035,0.530742804,0.14607674,0.815618825,0.506443125,0.292498845,0.869251379,0.979647099,0.701994065,0.82346337,0.023736924
10023,0.478750562,0.494728131,0.983187787,0.608621513,0.616613797,0.308084928,0.471358827,0.834819654,0.842639289,0.312310168,0.369255365,0.260528097,0.533676428,0.554651934,0.676684821,0.977365862,0.128403189,0.357829783,0.143815486,0.235457864,0.729195754,0.819059442,0.795912316,0.707214446,0.270688513
10024,0.309232077,0.133419384,0.234632452,0.229535581,0.544124881,0.889900121,0.443848099,0.664341129,0.260585076,0.334658824,0.578665231,0.024921323,0.686888886,0.117240237,0.719009425,0.150979069,0.788314965,0.846686962,0.592293003,0.247141155,0.727582281,0.136321327,0.461984171,0.430001586,0.725307283
10025,0.757090131,0.63764275,0.833182453,0.119380554,0.98061427,0.651565375,0.328716616,0.912856587,0.137775894,0.334025882,0.646882089,0.179188863,0.4534344,0.766441632,0.947206678,0.421468833,0.453873503,0.012910504,0.093205106,0.441883254,0.545503417,0.380942604,0.76425232,0.61869469,0.771356687
10026,0.742513828,0.918597579,0.111262524,0.031544352,0.229576289,0.990002205,0.870527754,0.870278847,0.199433778,0.428831929,0.629982463,0.470932927,0.053776975,0.315800655,0.225930421,0.804974803,0.076151049,0.877478043,0.018336102,0.819415654,0.283919129,0.141217689,0.368685029,0.450167638,0.961236408
10027,0.51956965,0.18664901,0.082211076,0.710754861,0.973167566,0.111854382,0.866678946,0.414446574,0.850430231,0.293948566,0.196493733,0.696948541,0.908911786,0.259968725,0.732155645,0.633261263,0.011509535,0.686946318,0.027481436,0.829369066,0.557832262,0.197251683,0.98589677,0.32494053,0.385675082
10028,0.615661619,0.066797129,0.111219801,0.661400471,0.214159843,0.29903385,0.206000472,0.84669845,0.069238181,0.569758837,0.995701555,0.562989162,0.847030256,0.019322442,0.162172886,0.601070794,0.802260988,0.184086556,0.291799621,0.938264348,0.333045499,0.641073764,0.020369953,0.531028672,0.181948161
10029,0.797736138,0.242573635,0.576300238,0.120873234,0.616250474,0.58697698,0.915899214,0.803856931,0.995643424,0.877021013,0.260915445,0.738332847,0.517365812,0.066936275,0.436136794,0.221621252,0.994091851,0.584926429,0.469143677,0.711408013,0.71944333,0.728601989,0.856480051,0.587707652,0.297822159
10030,0.850195836,0.918637888,0.162080795,0.627051252,0.883984222,0.737688074,0.487897598,0.270626115,0.03801979,0.277010076,0.612395193,0.303172096,0.729824162,0.211731274,0.615506185,0.630939366,0.329341608,0.010740211,0.817118177,0.918578855,0.06850685,0.777813045,0.518538634,0.211777946,0.827766234
10031,0.103209308,0.058353925,0.125010728,0.997511718,0.518626719,0.878553188,0.542061504,0.71537907,0.338450746,0.094844907,0.677556567,0.901192285,0.591580839,0.747199022,0.373731013,0.855116256,0.739243208,0.013395997,0.512245628,0.406606651,0.631382044,0.140499914,0.898273752,0.005143496,0.470470569
10032,0.765991466,0.534420467,0.786318257,0.574181179,0.564464799,0.717972659,0.089149951,0.958355788,0.552778653,0.3257274,0.354985258,0.942482265,0.843894654,0.194264397,0.568354041,0.172848441,0.255209183,0.291812938,0.744826877,0.336943513,0.377358867,0.109475502,0.92721458,0.380569874,0.766930594
10033,0.473553367,0.930349073,0.316299992,0.643064121,0.719119729,0.325184143,0.39240351,0.746861334,0.817091426,0.129766181,0.649569272,0.858687609,0.194440284,0.76268419,0.61590891,0.562582616,0.092797202,0.129765737,0.398529041,0.421112932,0.443562143,0.048356901,0.322471021,0.772735478,0.822757042
10034,0.075085423,0.886903455,0.727739177,0.26845527,0.267899011,0.726830615,0.213257632,0.397727816,0.02063144,0.764640078,0.24918049,0.998511068,0.781062026,0.177046847,0.041242929,0.194127401,0.369297878,0.765388338,0.088397786,0.404068753,0.165943275,0.270490277,0.646155631,0.17074444,0.210522496
10035,0.94738,0.61701102,0.180949761,0.412411269,0.233878302,0.650258358,0.61634448,0.157095112,0.962463129,0.956786321,0.129370356,0.698775009,0.416568709,0.415994637,0.094327783,0.257407503,0.339396177,0.540215476,0.624632247,0.908825545,0.41175547,0.251949076,0.375961034,0.751647483,0.270963628
10036,0.472202452,0.569632011,0.855889672,0.764619677,0.678951839,0.674706134,0.047578084,0.902752346,0.899740465,0.483091437,0.140330942,0.652595706,0.520238359,0.197182978,0.129806848,0.202803273,0.367069827,0.963665762,0.726347004,0.837546615,0.856853299,0.819858468,0.895143094,0.200591489,0.618896096
10037,0.337206653,0.714076643,0.075497943,0.378854675,0.355074659,0.671360034,0.981465677,0.560395573,0.108549429,0.401275827,0.661637344,0.923867092,0.183432838,0.883203116,0.32112083,0.715487309,0.327160207,0.209964928,0.21649316,0.270058369,0.398879655,0.396871584,0.688233705,0.155339223,0.674488051
10038,0.677297823,0.59702344,0.390033187,0.088694957,0.14509865,0.319718132,0.167265831,0.844501042,0.019097146,0.710955546,0.667347615,0.69743525,0.277963534,0.984242413,0.783167285,0.144115892,0.523272042,0.243112425,0.757750011,0.595989322,0.427156948,0.526800627,0.179616587,0.951899928,0.189781778
10039,0.244378967,0.896708226,0.431944346,0.449788214,0.339754181,0.8838768,0.292467743,0.416409732,0.252394098,0.531264056,0.19797233,0.462796661,0.977536642,0.586371544,0.788618618,0.922238108,0.232614919,0.756731916,0.022560189,0.171110895,0.742243042,0.924112139,0.555920398,0.396174677,0.713806625
10040,0.887282354,0.772150187,0.962769925,0.974476642,0.275122494,0.650344353,0.326865594,0.117621715,0.848734902,0.711181588,0.787032625,0.139519563,0.874331035,0.351823859,0.646765459,0.343209861,0.011667406,0.394622695,0.729242183,0.523602444,0.470058283,0.39008175,0.10884884,0.60824707,0.64583552
10041,0.233809812,0.613008542,0.693687144,0.74432734,0.51174653,0.857920873,0.192468558,0.84004237,0.413717347,0.159034521,0.472426143,0.95006655,0.360391876,0.669620941,0.164273219,0.049002583,0.707212979,0.44623558,0.359388749,0.856574984,0.326032609,0.918899106,0.011173162,0.189375336,0.629030321
10042,0.926020491,0.002236464,0.536275829,0.030645574,0.097704807,0.379394651,0.128760487,0.085970187,0.795434107,0.067528092,0.100827223,0.718983142,0.030346053,0.695145365,0.278995536,0.916348462,0.612999685,0.440232322,0.252938192,0.521119207,0.019945167,0.220750469,0.401997794,0.770513107,0.353823749
10043,0.265193025,0.763494531,0.803685731,0.732222585,0.187080477,0.234391258,0.208074646,0.048222601,0.98423529,0.085684646,0.369031222,0.455230655,0.811216535,0.737266361,0.414818481,0.823888364,0.130354205,0.847424002,0.224986645,0.649262823,0.445036963,0.064423736,0.830265155,0.844026964,0.669331047
10044,0.429741163,0.262064103,0.684354659,0.800629496,0.593719948,0.119975361,0.306457673,0.107834238,0.226313924,0.384556292,0.508494779,0.055042681,0.381539643,0.10994091,0.177136687,0.43112977,0.531483916,0.107362952,0.588415907,0.414974303,0.119688489,0.068043231,0.824614168,0.128098667,0.658491684
10045,0.358883645,0.869700693,0.194449535,0.098572336,0.862666045,0.809935118,0.95904031,0.704286316,0.152047505,0.334829207,0.564628641,0.269138859,0.536702128,0.139588628,0.617289399,0.799613005,0.371574878,0.183193849,0.422984014,0.202928379,0.879899613,0.32786636,0.471050699,0.296643808,0.130647367
10046,0.564187806,0.722856125,0.575333938,0.236695675,0.784758875,0.431078349,0.64757458,0.71725505,0.393050028,0.391010919,0.169330976,0.959097786,0.531779581,0.979006368,0.53232292,0.86115217,0.06201268,0.074974919,0.239365834,0.025161969,0.00017929,0.30035968,0.156662107,0.137804466,0.017374345
10047,0.635372504,0.172617774,0.238986193,0.535273741,0.139598233,0.242064853,0.417662942,0.469270632,0.528701808,0.949048278,0.879826024,0.412499942,0.679905479,0.441587354,0.712252915,0.338805523,0.83537188,0.003779232,0.453012407,0.35657299,0.013151407,0.833215748,0.399267304,0.601918391,0.910182477
10048,0.980508387,0.823426157,0.563937985,0.985206593,0.012591665,0.772581647,0.684558113,0.305992315,0.344267222,0.786136214,0.621299714,0.885408363,0.022001877,0.851357696,0.967484649,0.307573885,0.461091071,0.139717168,0.954432549,0.360110345,0.061577748,0.517432935,0.558727436,0.046855127,0.073885305
10049,0.081530501,0.739228891,0.135366279,0.606457938,0.458384051,0.882141297,0.05819816,0.942163809,0.13762794,0.010980591,0.188389613,0.383589504,0.5305369,0.149346666,0.609353078,0.300295458,0.036799475,0.63749437,0.650925955,0.416665586,0.484003221,0.452036452,0.154999476,0.057634311,0.175625772
10050,0.749702604,0.822949376,0.894613088,0.820116177,0.866979376,0.298444729,0.714094758,0.874063619,0.321240256,0.780109404,0.833384014,0.998024831,0.957404562,0.209011743,0.734118947,0.300731654,0.942285771,0.542258869,0.355659373,0.185478239,0.87786317,0.363067397,0.700097279,0.356753401,0.622223819
10051,0.282318704,0.188656579,0.492260348,0.93367647,0.475460385,0.350471241,0.835818451,0.804469398,0.82503003,0.204034869,0.394845905,0.193370769,0.465556897,0.084226075,0.495591527,0.093792751,0.385718931,0.685909145,0.243223505,0.814871573,0.826128412,0.742792207,0.726095576,0.094669419,0.570128007
10052,0.343191191,0.814780256,0.296374863,0.706918843,0.143338308,0.321949214,0.400565002,0.124552592,0.110433036,0.036781168,0.811797635,0.58239223,0.555909619,0.558077822,0.332198831,0.982697235,0.849303291,0.701860276,0.634160364,0.050941855,0.107121392,0.659240533,0.722408924,0.259966995,0.245239556
10053,0.753926435,0.610560217,0.243289106,0.856832101,0.065770826,0.717017493,0.385112127,0.416645104,0.805043426,0.125637358,0.343524862,0.721665523,0.687606054,0.904029471,0.976992662,0.593052203,0.937887257,0.746861767,0.208575945,0.930945524,0.065282548,0.498474138,0.31398472,0.317649702,0.892743436
10054,0.644289271,0.850676928,0.335118527,0.652397391,0.510715936,0.471084765,0.461017175,0.172205999,0.711860383,0.962661062,0.407566154,0.768455831,0.396581082,0.130877459,0.890269706,0.019318957,0.867756025,0.503475019,0.081529014,0.164488822,0.267164731,0.552632557,0.693092522,0.368549535,0.82177137
10055,0.786324264,0.665910045,0.936863812,0.214682435,0.576110666,0.397794045,0.729800443,0.011223748,0.555528507,0.986690412,0.059865086,0.989241787,0.479233311,0.428438672,0.35836147,0.548297336,0.45690135,0.937288054,0.752086615,0.351003081,0.062774059,0.427243578,0.729482291,0.844482052,0.518527381
10056,0.836369967,0.427440029,0.110034287,0.280027003,0.24514637,0.891550341,0.007612027,0.786320754,0.310194841,0.605696823,0.695722622,0.5355694,0.836956937,0.758311247,0.542904155,0.369813064,0.250873867,0.128680043,0.592210949,0.801543252,0.246687636,0.116518505,0.106560712,0.300840394,0.883376641
10057,0.143165469,0.329548287,0.739941372,0.172680636,0.345781279,0.2896782,0.521828653,0.12774784,0.381501436,0.795519076,0.920448422,0.098134209,0.961142887,0.610948987,0.809436243,0.2257023,0.468747592,0.920245308,0.926317036,0.709795794,0.473907616,0.38726262,0.936378136,0.610304592,0.38451826
10058,0.736633866,0.416964258,0.303705341,0.535000626,0.499330198,0.779032611,0.329912114,0.193977191,0.497441472,0.439792113,0.531698209,0.597125169,0.802519931,0.424390568,0.234449928,0.57054134,0.652067792,0.92092178,0.910396926,0.171806816,0.133011183,0.662105413,0.4356629,0.338923009,0.088853489
10059,0.399449043,0.035334425,0.51018737,0.16830372,0.621786464,0.71796552,0.94209657,0.873679274,0.187690857,0.904456857,0.00270844,0.257959371,0.998146139,0.348315353,0.906094835,0.804581844,0.338277449,0.418924781,0.651467643,0.528835476,0.54766347,0.260960055,0.58605278,0.30373131,0.285827898
10060,0.087916938,0.042087335,0.631401388,0.687857581,0.274652054,0.404652444,0.900749379,0.237352544,0.990926908,0.282261381,0.58955156,0.723603,0.602818299,0.962875443,0.589133442,0.676706094,0.167229082,0.221609277,0.174858051,0.814697022,0.009948186,0.502356794,0.226444939,0.731550553,0.870504116
10061,0.090621915,0.886778525,0.607290556,0.351288363,0.821139122,0.99781736,0.747989856,0.295770907,0.844195693,0.931068479,0.691028203,0.995633798,0.120624829,0.501896048,0.385554743,0.972135289,0.405696741,0.130891354,0.46026911,0.052661272,0.803124102,0.547336912,0.513863888,0.930260805,0.029193274
10062,0.855355997,0.30319468,0.940639755,0.500584098,0.603573203,0.023154105,0.012420251,0.04934276,0.091564693,0.308635733,0.919112939,0.383032877,0.300297984,0.779225355,0.092256178,0.448800608,0.487847511,0.914877195,0.759855558,0.06888828,0.21879999,0.174189042,0.17428811,0.217215803,0.203230958
10063,0.842193201,0.248523065,0.854963226,0.759305983,0.021416634,0.71548248,0.405595482,0.447420396,0.217171999,0.890650137,0.143465565,0.638853933,0.56516416,0.925856321,0.329300339,0.272907962,0.64874325,0.157834053,0.397353173,0.223638826,0.32975697,0.153010993,0.486206835,0.822786106,0.69207528
10064,0.339816431,0.329938596,0.645528105,0.686886902,0.091464071,0.017603177,0.839478978,0.841103547,0.315172431,0.092057753,0.468662711,0.141630603,0.824740697,0.410399332,0.923138252,0.894622166,0.140417754,0.530554955,0.988834524,0.368352323,0.009372835,0.29874574,0.048531266,0.429375097,0.972815354
10065,0.074432045,0.404302366,0.275599177,0.038726704,0.271149296,0.712976717,0.749728428,0.845991089,0.740233514,0.801135441,0.479500491,0.776291677,0.554371145,0.495080007,0.398873574,0.080914328,0.627264514,0.880858316,0.075689072,0.511115414,0.752272206,0.29853932,0.625604637,0.659688965,0.660537907
10066,0.002233403,0.043778285,0.179575736,0.477163455,0.20170148,0.352021598,0.682995797,0.244075922,0.45958849,0.679161015,0.157035833,0.17531502,0.56698536,0.363998887,0.792062286,0.74884833,0.427216771,0.199080809,0.850676653,0.898291035,0.651211532,0.557530083,0.871041812,0.633746743,0.575662823
10067,0.140673393,0.879085107,0.304339282,0.261567249,0.142069249,0.646293415,0.385224539,0.609674746,0.034999552,0.225414744,0.273572077,0.651508723,0.071494763,0.45037181,0.257751658,0.89956668,0.76333895,0.14931927,0.864050241,0.149430534,0.199321385,0.976087108,0.255333788,0.350266849,0.48316222
10068,0.827654264,0.858714512,0.534841241,0.102743392,0.162061939,0.854587269,0.224893914,0.149586868,0.305893083,0.193183545,0.364284633,0.074412003,0.978408965,0.554141847,0.122941125,0.369969951,0.05058328,0.997805449,0.134602695,0.612881913,0.171812267,0.602157283,0.200354311,0.801080837,0.079683313
10069,0.033555334,0.856055312,0.289399396,0.115436646,0.071122156,0.485301721,0.851793188,0.978411621,0.298870069,0.214490309,0.628042501,0.666043184,0.236210465,0.895420872,0.670968208,0.142147662,0.56204172,0.452548179,0.571998965,0.506317454,0.952311572,0.654669428,0.64577409,0.534400489,0.83629096
10070,0.836056072,0.462364853,0.57199712,0.239556107,0.999020511,0.454693583,0.108671043,0.88673978,0.0534962,0.476404264,0.479608093,0.878270456,0.199210246,0.620115609,0.758284349,0.754655355,0.208675415,0.024071822,0.185382296,0.279680412,0.34253224,0.966859893,0.854852454,0.395422133,0.732903677
10071,0.727669398,0.148515439,0.1599274,0.09748295,0.303198323,0.257891652,0.897844876,0.511515485,0.973176933,0.280433194,0.356560954,0.788945811,0.416849958,0.735593324,0.294862204,0.119470931,0.758794043,0.655258243,0.314825351,0.20627049,0.79077998,0.853623592,0.529799973,0.585172988,0.84412502
10072,0.747798952,0.99541062,0.405205639,0.276643697,0.984579328,0.271153057,0.426361472,0.032825695,0.027328538,0.825404504,0.033705667,0.89994786,0.594455588,0.095527577,0.882241205,0.929833682,0.398375897,0.833303368,0.882603431,0.023203919,0.280460645,0.61069499,0.079043853,0.553213309,0.276659523
10073,0.365886558,0.646973044,0.437634273,0.225708448,0.831249214,0.350489269,0.03585517,0.931550037,0.137104071,0.468143719,0.704431131,0.947021859,0.394306253,0.553388258,0.368191367,0.832641698,0.21516687,0.101938257,0.868495596,0.616171367,0.668397259,0.681852609,0.748588054,0.136353145,0.109038905
10074,0.379563114,0.559256354,0.233946264,0.9606785,0.348555698,0.35389138,0.994396894,0.06934784,0.308552673,0.665477519,0.696360621,0.915293962,0.70819206,0.193239739,0.123454262,0.675162107,0.632407688,0.294932028,0.878377602,0.500718261,0.528572489,0.152929488,0.706065072,0.673900772,0.698370748
10075,0.912891356,0.423435008,0.713496953,0.900785983,0.202524677,0.448220854,0.696355228,0.190260847,0.393174105,0.167780969,0.722762152,0.390318534,0.198192955,0.221897938,0.634125725,0.303549053,0.257539424,0.90752234,0.513745696,0.423997718,0.274512444,0.755444963,0.545354529,0.723259343,0.681134108
10076,0.684275941,0.365837588,0.877917548,0.404267488,0.661573808,0.953759576,0.67983342,0.395614939,0.410901843,0.793633031,0.752016873,0.556244139,0.635952094,0.781252543,0.713148112,0.25577801,0.591597895,0.084422687,0.315891445,0.603255987,0.615713105,0.504636723,0.084158484,0.772722671,0.185082512
10077,0.914845888,0.663561159,0.35731819,0.601644477,0.401671323,0.24514499,0.347657761,0.790988027,0.146888667,0.499448975,0.807379771,0.979893225,0.557188579,0.544803253,0.267516042,0.422948936,0.4422117,0.964368953,0.454915614,0.877088638,0.790957527,0.511361342,0.395825688,0.057491646,0.722760274
10078,0.349865429,0.821843709,0.949468292,0.974379398,0.487480718,0.442501233,0.182189657,0.792426824,0.486922826,0.999989443,0.139744958,0.407224663,0.769487983,0.05611742,0.872801753,0.531376019,0.845116415,0.390089283,0.2217127,0.46762547,0.561156284,0.000382026,0.131009617,0.93105316,0.781657685
10079,0.787214666,0.679514,0.05399841,0.243256819,0.150123029,0.605234287,0.981641117,0.86040291,0.042519287,0.368669956,0.544261955,0.906822421,0.354504916,0.762822781,0.583260105,0.810302392,0.638681845,0.525613654,0.417561698,0.02428311,0.554170194,0.735531013,0.158733284,0.14093624,0.681530553
10080,0.186145883,0.705962425,0.987840128,0.704316572,0.13792705,0.870633473,0.595830337,0.680990697,0.691386373,0.998482017,0.509269611,0.041024964,0.46540935,0.800336915,0.340801589,0.591753743,0.477877991,0.046820198,0.908258273,0.220819097,0.115077252,0.897765195,0.449250896,0.823558222,0.577425328
10081,0.778600077,0.156508702,0.143582915,0.066347208,0.221139735,0.633073218,0.276817249,0.886623208,0.841581682,0.736056842,0.319697275,0.778677837,0.002320954,0.540509551,0.622615199,0.991009673,0.77085703,0.167418942,0.340158782,0.814846796,0.623438033,0.6874701,0.179797413,0.692348854,0.221302161
10082,0.046174765,0.304410002,0.495332401,0.527275949,0.462691304,0.610278883,0.241241649,0.696822897,0.600712307,0.148339623,0.859150692,0.398114905,0.362078197,0.623118531,0.393267579,0.771398465,0.707068318,0.223441205,0.408328089,0.97519514,0.896455435,0.989568089,0.995306683,0.071390211,0.689456518
10083,0.928731999,0.785380321,0.927144163,0.735818949,0.536214646,0.083393338,0.258410186,0.278472211,0.644876647,0.683940314,0.7234579,0.598473489,0.491967896,0.521332682,0.969437272,0.889240664,0.560414727,0.728743303,0.659321107,0.997063346,0.185950368,0.882266325,0.420087532,0.798681388,0.528555139
10084,0.629782796,0.476843011,0.475675471,0.187932835,0.341425383,0.872970872,0.07325907,0.335133465,0.497030711,0.000371299,0.895032494,0.649423626,0.091727677,0.964942624,0.289123385,0.887668616,0.925614618,0.963210152,0.667732143,0.771536604,0.543950107,0.898501644,0.745079234,0.428451026,0.865044852
10085,0.770478992,0.488771272,0.808745285,0.648998263,0.214873861,0.534222675,0.743180266,0.700985634,0.542970684,0.487101358,0.78521716,0.002214217,0.634857155,0.627740388,0.656522116,0.747161105,0.959700452,0.497986152,0.871138008,0.640567965,0.563784016,0.866944485,0.489495885,0.769996376,0.771695042
10086,0.954582254,0.210603036,0.825698492,0.8186411,0.503151473,0.728906937,0.512206636,0.10399412,0.16476007,0.180680673,0.687767983,0.064437683,0.871637871,0.010821833,0.879709737,0.636381022,0.609212762,0.01276108,0.45595196,0.611374788,0.751791487,0.165260643,0.266122708,0.44158028,0.741299035
10087,0.804666758,0.690393448,0.091993303,0.328602263,0.726572424,0.766510699,0.459122267,0.050632528,0.426066444,0.942317292,0.077818285,0.021242421,0.475378187,0.69907475,0.911207988,0.131199217,0.247421265,0.7669566,0.467868745,0.115209492,0.602356874,0.73596515,0.711629159,0.320042295,0.99223449
10088,0.950178126,0.751353303,0.467146775,0.035902703,0.697231859,0.192450402,0.634787282,0.850664662,0.879399599,0.110038715,0.736530595,0.83582924,0.501153974,0.239624835,0.57796038,0.385828693,0.246237066,0.037962209,0.465522797,0.460927942,0.865659576,0.946159706,0.511817702,0.111510105,0.619235272
10089,0.049163413,0.479898554,0.119722529,0.269996718,0.205969158,0.683673722,0.322236072,0.876297054,0.057753137,0.89954649,0.643801294,0.526991907,0.07204422,0.89205904,0.629461716,0.543193936,0.247833652,0.643427542,0.056939127,0.456978531,0.666001979,0.24593604,0.460198793,0.810153304,0.720079872
10090,0.735792354,0.684180172,0.912631944,0.239550822,0.740984177,0.000616375,0.661836476,0.61832778,0.916855234,0.912265887,0.750876972,0.345773277,0.087888855,0.289785019,0.203752235,0.576546607,0.596590256,0.22793253,0.965720762,0.673905711,0.371466241,0.306366048,0.206331332,0.13192257,0.892365894
10091,0.067489321,0.892631122,0.622808582,0.56256152,0.833052564,0.873746781,0.661707707,0.939113882,0.728957905,0.451545221,0.987804222,0.791627201,0.502283092,0.251165215,0.908648901,0.606412672,0.306642474,0.007404818,0.597403127,0.775175508,0.210383653,0.200574159,0.651835006,0.122900968,0.083637287
10092,0.539641468,0.506401454,0.377378319,0.779853241,0.829294312,0.632056803,0.618542979,0.417577895,0.9813619,0.124742243,0.052413251,0.419257403,0.358339905,0.329758536,0.711993467,0.94542029,0.636929763,0.851498816,0.658569016,0.971126899,0.186451705,0.886194434,0.491307775,0.802764196,0.419914156
10093,0.341364606,0.85263485,0.377754228,0.203682713,0.214294532,0.335728429,0.652755167,0.849447129,0.781764306,0.593801257,0.229271437,0.721443441,0.575704779,0.107760104,0.072694548,0.897066001,0.231781715,0.371305491,0.845199761,0.055696579,0.625007957,0.150185827,0.594226525,0.036623359,0.281968558
10094,0.781962304,0.570461563,0.24844323,0.223497994,0.089623862,0.213013857,0.727604949,0.352537867,0.354003268,0.048687089,0.899338472,0.522371856,0.61097488,0.853216771,0.786025484,0.827734506,0.458730434,0.525582509,0.531618433,0.010727301,0.303201771,0.119850321,0.775561517,0.221229594,0.907843116
10095,0.020201362,0.037520904,0.083486987,0.586243625,0.406137137,0.654427316,0.721010215,0.97677331,0.2439188,0.768967954,0.293411589,0.636283779,0.712739955,0.326008809,0.172316231,0.168068873,0.279310589,0.838272469,0.438010615,0.228866297,0.348770781,0.195233925,0.390487317,0.3359506,0.563755485
10096,0.422229875,0.76435411,0.79408278,0.102506589,0.263019979,0.585273071,0.716520408,0.302582526,0.608993064,0.186417701,0.684834916,0.57049337,0.479947724,0.6996722,0.753890356,0.66252215,0.2778279,0.17421756,0.112803887,0.301866426,0.488064652,0.879246609,0.642970675,0.641732288,0.384419612
10097,0.285705499,0.950357304,0.649961143,0.135649686,0.867463206,0.939509175,0.031092524,0.608154234,0.561460084,0.662226615,0.143738048,0.627680962,0.3220622,0.174253175,0.29564722,0.434345197,0.99055268,0.816889141,0.951321829,0.093648183,0.077025888,0.366068515,0.440314425,0.41889308,0.599015956
10098,0.64384047,0.420466568,0.824114479,0.989452717,0.775169935,0.902773246,0.086395363,0.338384302,0.445925062,0.703111132,0.248428115,0.668329967,0.368750792,0.100023637,0.63877322,0.241580932,0.129480068,0.359485913,0.703896297,0.774315775,0.149869043,0.362196137,0.057638151,0.267753018,0.993501534
10099,0.870020457,0.214588087,0.950192629,0.622994046,0.768622785,0.49290892,0.60591586,0.781196483,0.847990327,0.694073735,0.549758858,0.636353729,0.968833831,0.146672991,0.485093756,0.185883586,0.634363097,0.272706832,0.813616196,0.401575354,0.314661785,0.007447511,0.797308505,0.446783895,0.492839181
10100,0.958040328,0.029732245,0.885673613,0.673519985,0.12081977,0.912337919,0.43985158,0.479815636,0.062616535,0.073390974,0.932519902,0.127505886,0.792383245,0.490930427,0.688378237,0.861811253,0.604962911,0.468521847,0.062696346,0.701389657,0.098962559,0.057016339,0.645015399,0.75655846,0.525271987
10101,0.038597599,0.943235688,0.599673783,0.101263481,0.357568284,0.337396386,0.570331798,0.070927616,0.111768608,0.116549193,0.870387263,0.282520393,0.887894027,0.536915567,0.644036142,0.672463241,0.983067779,0.59934188,0.096181785,0.294688116,0.805582978,0.498065604,0.08581528,0.565273998,0.894502188
10102,0.869519837,0.994756565,0.651827989,0.59065007,0.685321871,0.224227702,0.255097826,0.921527027,0.950026761,0.68296426,0.229761151,0.281285229,0.104566791,0.510996033,0.352686696,0.096826138,0.669478237,0.221960582,0.942879778,0.770455875,0.021772987,0.857548418,0.229763762,0.144172754,0.541061184
10103,0.083878941,0.251772179,0.855670817,0.294417916,0.038553907,0.819098254,0.498468583,0.930613557,0.04525273,0.271086341,0.339310689,0.013181032,0.464046075,0.208545838,0.864363723,0.574246239,0.04616101,0.088353054,0.304386774,0.927581397,0.365728555,0.533014974,0.087858412,0.90405892,0.747488344
10104,0.855530623,0.721430157,0.613141656,0.465020109,0.529478341,0.507575215,0.07911984,0.687567596,0.072455902,0.402918985,0.721459813,0.602129003,0.440948671,0.621138524,0.506511715,0.710752469,0.325763693,0.822283708,0.209005973,0.551641746,0.777523946,0.352509661,0.890488037,0.544203164,0.943921884
10105,0.131282004,0.599477362,0.684547045,0.11466992,0.070138602,0.274522779,0.072755802,0.67004206,0.507900676,0.239295874,0.698002079,0.551164517,0.41176006,0.321049168,0.839655055,0.878197644,0.370634414,0.347419158,0.609355498,0.142836742,0.211143451,0.571657353,0.56603854,0.520901352,0.899563303
10106,0.542992737,0.453960335,0.745819342,0.889039958,0.151181706,0.966940521,0.143289994,0.146583067,0.377323988,0.820226629,0.588811317,0.257370893,0.034457412,0.706377572,0.094744851,0.660576212,0.388942671,0.353376359,0.276658809,0.472439671,0.19304925,0.846390035,0.734624084,0.557482022,0.013407549
10107,0.673299954,0.945757235,0.838385726,0.385300539,0.787629809,0.377979954,0.410302817,0.465639582,0.374893244,0.268770351,0.478223676,0.214166828,0.171854267,0.458620591,0.571225014,0.267240078,0.109626073,0.995523156,0.396997879,0.844195483,0.624563146,0.651766454,0.215661162,0.065522594,0.493500177
10108,0.759671412,0.696949194,0.019971136,0.571343065,0.457184694,0.819443323,0.067225691,0.128679986,0.003837037,0.755492964,0.338872943,0.494771561,0.986604237,0.987839192,0.471038842,0.450471841,0.957628499,0.224101617,0.298614434,0.399219953,0.412346995,0.34612381,0.92729411,0.621866091,0.896984782
10109,0.466912248,0.197769724,0.027465329,0.722629643,0.672423476,0.256222996,0.96499732,0.169307748,0.464637958,0.258668507,0.105621485,0.69348897,0.047852223,0.179028966,0.133632878,0.427515274,0.048998497,0.407033218,0.553129238,0.097778464,0.415014397,0.667533821,0.274700586,0.834942607,0.051763349
10110,0.584251722,0.090193609,0.613491868,0.763206608,0.261922578,0.278539546,0.449738352,0.885865916,0.278123419,0.806067244,0.138282612,0.987977568,0.686107845,0.396681328,0.635438409,0.777495874,0.246640917,0.739743018,0.35287495,0.665556973,0.795201512,0.875103915,0.024563285,0.340484486,0.806591629
10111,0.965997693,0.48219091,0.20885853,0.058349857,0.823650086,0.628341156,0.30208021,0.162490759,0.572056472,0.532584419,0.061168635,0.031722124,0.134793663,0.276236056,0.832539661,0.76241014,0.157908861,0.001104891,0.655398218,0.191609826,0.260759869,0.237364442,0.358213033,0.637401292,0.624415095
10112,0.42539148,0.018742904,0.341540439,0.103366718,0.366233582,0.140841973,0.302450158,0.294200702,0.314511466,0.193056127,0.460995422,0.077453125,0.644892864,0.752239472,0.800245837,0.492855435,0.021903531,0.440339125,0.686875967,0.205341345,0.153963083,0.013965532,0.245869952,0.953249789,0.669148578
10113,0.316660838,0.594242607,0.492881493,0.078319011,0.492584454,0.923820169,0.218233943,0.035092433,0.300333629,0.449563747,0.198401688,0.55977323,0.368550065,0.720031949,0.358824962,0.754913411,0.673644742,0.77789353,0.637515128,0.817898774,0.728896453,0.599995484,0.295452838,0.045963308,0.644887077
10114,0.059089276,0.371523671,0.271101995,0.327688664,0.597951732,0.289302975,0.761807246,0.730312456,0.460778807,0.094332089,0.938206394,0.340823428,0.255020116,0.768893306,0.961044074,0.524733919,0.960189061,0.435896214,0.553486787,0.802100605,0.961775736,0.526518214,0.410112173,0.351018627,0.739368684
10115,0.268939124,0.255359642,0.034205651,0.485137565,0.836210175,0.507003089,0.420506939,0.308758786,0.407586465,0.165993818,0.302742198,0.433011368,0.964134541,0.146350406,0.517677763,0.731128382,0.892598974,0.582281953,0.200903118,0.857935155,0.539372028,0.485420313,0.877489644,0.509659444,0.978900453
10116,0.234991543,0.936739769,0.510024006,0.71353789,0.486796154,0.988294298,0.388769015,0.368148839,0.616765515,0.581355673,0.573572639,0.703385419,0.622273373,0.953276053,0.580205318,0.075844176,0.752894471,0.449092715,0.567124234,0.785719323,0.838721598,0.704552116,0.442786791,0.618299188,0.138898673
10117,0.234493481,0.480971041,0.373298594,0.357495138,0.553347166,0.180636089,0.031528139,0.18685901,0.852668277,0.276375047,0.755509776,0.61252136,0.856027535,0.403173435,0.398932103,0.09111606,0.852488874,0.788880385,0.952512073,0.65498587,0.504301446,0.846891706,0.625314413,0.380124712,0.066329305
10118,0.542764958,0.326285704,0.267785563,0.07155085,0.800392634,0.278632409,0.319498154,0.837582266,0.546265192,0.362621819,0.646820551,0.446900734,0.683032912,0.308639804,0.442561284,0.399038716,0.682100311,0.907108794,0.626069654,0.933408903,0.311352321,0.648071341,0.240326415,0.759090633,0.000755673
10119,0.450261753,0.295766804,0.745978317,0.593742066,0.303035458,0.196471224,0.64673346,0.52873527,0.920528164,0.839126908,0.583652809,0.905407703,0.281399606,0.399053539,0.685256476,0.137709658,0.352495903,0.190358383,0.334220416,0.188650513,0.945453834,0.554692316,0.068377018,0.128367811,0.28376805
10120,0.322581897,0.58444908,0.468503291,0.154761362,0.384301469,0.141604089,0.063924313,0.298671784,0.68342966,0.445089809,0.856268927,0.292151192,0.045290743,0.490853828,0.550788727,0.017802409,0.661770794,0.895239077,0.136424515,0.15926009,0.804428383,0.584134436,0.926790297,0.564519458,0.519881427
10121,0.690047426,0.303053565,0.249981647,0.0723534,0.15131762,0.504398177,0.9008551,0.407033725,0.504736188,0.068951477,0.478897092,0.463014665,0.684351963,0.123248914,0.25795913,0.591480095,0.813017711,0.018408411,0.066178649,0.072614143,0.811445511,0.335177402,0.464433733,0.086311261,0.653428949
10122,0.121203456,0.618423207,0.998487206,0.184046635,0.344723499,0.246660355,0.809664265,0.615429948,0.934482804,0.08876991,0.179043562,0.565105466,0.759810049,0.813076805,0.759441737,0.645651771,0.969140027,0.073068735,0.36605238,0.18174458,0.787397507,0.55134551,0.051979998,0.586611873,0.61495331
10123,0.84442783,0.003431401,0.145354195,0.165640506,0.633585819,0.744290892,0.945076095,0.155734949,0.735939549,0.508341001,0.557053461,0.869960667,0.280729386,0.524641318,0.968632466,0.565177817,0.767559887,0.730747994,0.692084096,0.758190401,0.352373624,0.525288611,0.701569436,0.266236136,0.415190418
10124,0.769826621,0.511603309,0.662163204,0.154086865,0.18418694,0.126625567,0.342115385,0.747900865,0.798105612,0.989256702,0.26024888,0.870070612,0.042588002,0.138759986,0.939457443,0.809267553,0.671299606,0.903941882,0.987916698,0.110148069,0.22536437,0.394852195,0.715742951,0.409613639,0.712190455
10125,0.459572775,0.781486827,0.831292058,0.100877319,0.970153184,0.309012003,0.640852438,0.113429955,0.779660221,0.517369942,0.733590666,0.73331526,0.476000826,0.979780529,0.126437406,0.38140201,0.632307352,0.028871127,0.387009368,0.13471971,0.018709718,0.594079201,0.772529694,0.24352656,0.373627206
10126,0.98554993,0.484888255,0.553075869,0.642382369,0.8568015,0.578973295,0.015661101,0.017198203,0.813161117,0.90901449,0.710866675,0.268397219,0.746020795,0.38760117,0.241584738,0.930873803,0.765823558,0.901093275,0.023598761,0.780969848,0.334147398,0.12046709,0.08045274,0.085850663,0.120704179
10127,0.96527673,0.391362853,0.643120777,0.328353414,0.862742995,0.670489608,0.581531813,0.785605811,0.43253727,0.894725572,0.513970184,0.354855437,0.185122923,0.701412742,0.976605133,0.529179274,0.173667334,0.888930038,0.92063986,0.050187596,0.998160302,0.382656038,0.505409098,0.635283902,0.089611203
10128,0.725759024,0.896931588,0.083361018,0.382914794,0.819967442,0.010228864,0.960868744,0.802881326,0.913621068,0.550248291,0.133927033,0.612634735,0.541386996,0.961686503,0.189103966,0.956395679,0.63150176,0.538391094,0.778146027,0.30888287,0.532528937,0.752068238,0.771275835,0.534196123,0.71074419
10129,0.932166838,0.669513303,0.660967144,0.753955349,0.156802577,0.450822048,0.493760044,0.022577414,0.823213939,0.911060065,0.8072459,0.332715622,0.102322206,0.331663794,0.383634164,0.478366925,0.130916918,0.360367424,0.892944538,0.034772691,0.95593843,0.421605019,0.310973291,0.290592437,0.668343839
10130,0.722494992,0.773622463,0.248584205,0.403080228,0.259955805,0.350905947,0.5308644,0.6060978,0.274356906,0.13877917,0.569897042,0.075524848,0.068836006,0.922495504,0.309951989,0.06076605,0.753314878,0.705307201,0.164136026,0.305807891,0.546908362,0.912553166,0.84424114,0.009367705,0.407410928
10131,0.972618176,0.772676621,0.461462038,0.820416933,0.397716229,0.790849669,0.3587359,0.817731563,0.979597647,0.970241295,0.512607443,0.154832153,0.203733865,0.387253559,0.924939341,0.758450487,0.596866818,0.757499198,0.19806636,0.919497553,0.176606263,0.263787735,0.95188411,0.013995409,0.33857754
10132,0.223794301,0.808181059,0.082641697,0.013944505,0.058944518,0.454574374,0.277957948,0.45937168,0.860787654,0.797990579,0.909871245,0.765830789,0.88250928,0.951386864,0.939136334,0.38932587,0.358844545,0.931144078,0.975938374,0.947102367,0.228350732,0.693390619,0.379448541,0.805385768,0.421501062
10133,0.267328712,0.06794853,0.229748126,0.754618041,0.894882573,0.143954629,0.75858039,0.296704072,0.200360238,0.700555776,0.080402464,0.967423984,0.932817788,0.643053958,0.790531551,0.537032738,0.536732723,0.528900814,0.876940809,0.675953623,0.448256419,0.188961976,0.131296725,0.521143919,0.066486692
10134,0.197061326,0.016240399,0.42947766,0.048211171,0.325271683,0.233844357,0.235126721,0.706057852,0.827644733,0.895743865,0.431582055,0.312653887,0.317292061,0.577044946,0.270384063,0.699949778,0.706963218,0.601299859,0.881136302,0.668086889,0.452402212,0.090736672,0.446281687,0.535425079,0.510860261
10135,0.304181193,0.04185344,0.921372349,0.95467257,0.782105472,0.064832362,0.005031983,0.040742266,0.981296662,0.94478078,0.0300235,0.5449151,0.518993419,0.160117544,0.518255138,0.719667222,0.825279635,0.789502508,0.938358516,0.891658321,0.296358771,0.504132985,0.086569372,0.587207673,0.831590641
10136,0.635758217,0.437944336,0.416230552,0.499056384,0.570477075,0.036439775,0.482661868,0.770239291,0.534370937,0.856792939,0.704918034,0.901625659,0.84176184,0.386778186,0.755941945,0.310936428,0.411050495,0.859067462,0.063592072,0.860665976,0.307990672,0.112299304,0.340840845,0.35468146,0.610777047
10137,0.794830621,0.840026877,0.020442782,0.128243234,0.805368631,0.82748954,0.900544627,0.954795479,0.784798376,0.813667701,0.694441104,0.136114141,0.073907368,0.169801862,0.623774509,0.927552996,0.112093524,0.050776143,0.568349804,0.115919708,0.202174624,0.419481058,0.642732555,0.871093515,0.396121662
10138,0.911033365,0.340343852,0.993521143,0.219230341,0.456928631,0.269759973,0.894415788,0.835321178,0.237718107,0.970126028,0.567163361,0.800618421,0.225415194,0.909591727,0.748328278,0.350160872,0.591517107,0.089915229,0.707156698,0.776188401,0.072307703,0.647309317,0.910990334,0.513604534,0.608261795
10139,0.714776163,0.924398192,0.347268118,0.869935928,0.586052209,0.962305724,0.396695068,0.954491754,0.839598738,0.906080078,0.415039982,0.172598819,0.36994002,0.586562522,0.324730335,0.629598628,0.820118058,0.432723115,0.880550759,0.887643046,0.97849956,0.987171514,0.728799692,0.339912044,0.218016105
10140,0.456253473,0.683408677,0.438031103,0.579213282,0.774947105,0.163873186,0.244662044,0.613502761,0.566511064,0.662339669,0.187975174,0.316503358,0.582250893,0.048473115,0.382564372,0.203739046,0.690129465,0.939511795,0.24055687,0.722176675,0.498319288,0.507675908,0.602087816,0.195484024,0.60798513
10141,0.601705421,0.740384877,0.775598437,0.93935107,0.216607102,0.237612916,0.845617333,0.845384283,0.203463001,0.083803424,0.41184382,0.405896604,0.632417376,0.8159486,0.570420435,0.381356816,0.141833042,0.81346261,0.091314697,0.430008627,0.918663637,0.341743157,0.554110315,0.371131529,0.483963307
10142,0.341378076,0.22455462,0.178726912,0.438993555,0.012618659,0.142246072,0.570360396,0.614816887,0.686704858,0.497484606,0.48102008,0.583046707,0.968969586,0.932152941,0.670797853,0.088080171,0.470778329,0.997554453,0.774017787,0.0425908,0.2471755,0.487706522,0.84452185,0.319188332,0.003374735
10143,0.550502829,0.109208734,0.326065879,0.512705988,0.946682813,0.43836853,0.511995208,0.493480451,0.858519254,0.939467296,0.712291001,0.928928761,0.609791614,0.38460482,0.130304994,0.85255759,0.121933302,0.843495309,0.009076162,0.413520712,0.800822417,0.647150723,0.993758282,0.407239025,0.907342263
10144,0.937234337,0.458804298,0.730009293,0.76752768,0.908280601,0.25643856,0.273754257,0.495582652,0.496431859,0.908930975,0.454994725,0.876367614,0.656517114,0.61696694,0.55565725,0.270634612,0.075613657,0.541747773,0.847940389,0.302292323,0.198944175,0.745185684,0.38393473,0.425129924,0.545418122
10145,0.507192819,0.034379433,0.621818405,0.776442995,0.653748039,0.140145811,0.759524675,0.342902859,0.232176051,0.674586409,0.552925269,0.518738783,0.912610978,0.319052947,0.804170864,0.242854267,0.350489429,0.600012237,0.569056361,0.61975506,0.978323568,0.265152703,0.333311717,0.767940033,0.463271615
10146,0.321495578,0.160122116,0.939628736,0.813044415,0.537078195,0.658541485,0.279515678,0.535229006,0.019658217,0.884027338,0.37647973,0.529819676,0.688873493,0.212234311,0.746367135,0.322266076,0.425144897,0.711967933,0.10363475,0.594990391,0.256576473,0.555985327,0.504417963,0.16559185,0.633587202
10147,0.839300055,0.742590401,0.760001354,0.006934041,0.440308311,0.089890993,0.684596299,0.385992916,0.851054196,0.657794386,0.737898403,0.712526315,0.330961702,0.404040958,0.28997478,0.862593048,0.290081593,0.986828106,0.51906469,0.798397113,0.54281763,0.099474223,0.017773513,0.821577637,0.403141078
10148,0.460620667,0.606140428,0.316365919,0.549126083,0.81370107,0.064178121,0.409194583,0.058595106,0.477895707,0.193745913,0.78200513,0.040785624,0.269518698,0.733527033,0.964463151,0.903800305,0.74494215,0.532885818,0.83516561,0.76371848,0.838980551,0.047296155,0.446095821,0.880507606,0.413449653
10149,0.490194856,0.254057523,0.725551732,0.718927579,0.903349925,0.889829488,0.643235583,0.192361711,0.917775514,0.146727235,0.958464709,0.698747936,0.438976376,0.976912414,0.288987174,0.62714951,0.047884359,0.92650073,0.450740313,0.041481381,0.32759066,0.970379024,0.33754191,0.826061327,0.980881238
10150,0.435413961,0.718188734,0.527040518,0.375832929,0.878173077,0.913482453,0.401550223,0.759912887,0.076394294,0.882429032,0.369197051,0.000572196,0.094785747,0.904291125,0.854100726,0.930228695,0.408847595,0.410941394,0.226156717,0.690200753,0.867650035,0.655684392,0.669645058,0.769169816,0.810766893
10151,0.246086525,0.296344672,0.991744013,0.915802026,0.10940545,0.433167304,0.016766465,0.7640879,0.712696685,0.617469728,0.839149518,0.377947907,0.531814138,0.162509996,0.698527812,0.966457225,0.221679618,0.73570749,0.897434222,0.217541375,0.274428626,0.46270565,0.833412966,0.585655609,0.184941989
10152,0.444172392,0.111409741,0.134079182,0.323659883,0.391371095,0.50164155,0.938428596,0.599748862,0.595180503,0.261777282,0.540548029,0.703734652,0.628266078,0.986699218,0.118494233,0.412210388,0.528050374,0.94874445,0.585548228,0.611808822,0.21028908,0.657176263,0.282220555,0.324424462,0.748183757
10153,0.158386193,0.435467444,0.859367418,0.618923211,0.931498733,0.380072283,0.230011182,0.976408233,0.242938256,0.145737566,0.809851519,0.977933808,0.795738555,0.455957672,0.742240164,0.219161988,0.602465892,0.389418574,0.884336669,0.596161866,0.096618635,0.293151043,0.903051488,0.671403285,0.562801805
10154,0.437771603,0.553487015,0.581928635,0.952514701,0.35937702,0.278138557,0.734662007,0.633160421,0.650720907,0.028027216,0.287165275,0.682238534,0.841434571,0.557796949,0.878586783,0.230625962,0.804207248,0.237822419,0.352742621,0.820504828,0.756348598,0.865101238,0.064580384,0.016286896,0.312675324
10155,0.68419658,0.839828269,0.816523406,0.663613418,0.851739221,0.69849319,0.888053777,0.780368727,0.814591101,0.43500738,0.868107863,0.45601622,0.1299282,0.864660897,0.722425715,0.323177863,0.27953704,0.48184873,0.343618572,0.327912038,0.165265601,0.724723795,0.027113981,0.856139733,0.789125917
10156,0.526637643,0.611829018,0.239413135,0.82672967,0.675259121,0.029725484,0.656925925,0.811993053,0.194851444,0.144302061,0.280829067,0.038896035,0.784101619,0.552238971,0.997213207,0.607493147,0.840976334,0.434966507,0.462862765,0.400503157,0.042075408,0.452346508,0.946761386,0.196660417,0.763843952
10157,0.469522059,0.015764306,0.187905563,0.717763969,0.173245034,0.196926742,0.223396027,0.487346343,0.803147746,0.625677849,0.936235438,0.933774563,0.309751546,0.955829315,0.685215986,0.789605833,0.743380712,0.77896439,0.452678675,0.962685329,0.685870335,0.061515016,0.496232797,0.160939564,0.874028747
10158,0.247033486,0.701556914,0.387263746,0.195832529,0.424022721,0.014767048,0.916935212,0.732945368,0.585489795,0.204013229,0.102271195,0.597461301,0.605879986,0.952439906,0.234085801,0.369318676,0.893909011,0.089081824,0.079368509,0.14017372,0.424726358,0.30849919,0.311057536,0.250866628,0.63594489
10159,0.897848161,0.653071614,0.987805079,0.743112695,0.535093634,0.222749438,0.717122124,0.162591692,0.956791105,0.279256282,0.011770274,0.691143837,0.55070573,0.329708777,0.565735588,0.450796635,0.701596013,0.646976344,0.957320769,0.267076519,0.383767396,0.799752144,0.435377053,0.390534085,0.593665339
10160,0.927320519,0.093877712,0.995627952,0.748483794,0.781082934,0.070880346,0.656892201,0.029529756,0.729551214,0.060362636,0.067152974,0.181365021,0.682794854,0.005839337,0.563736207,0.213876797,0.523176576,0.303690507,0.904159968,0.017145971,0.365693781,0.607382785,0.188779598,0.902841998,0.755678024
10161,0.289450078,0.244079731,0.756916668,0.568743236,0.890339506,0.841919253,0.260303276,0.656264898,0.212368145,0.711059385,0.588063648,0.677499711,0.042031985,0.718728066,0.857348881,0.361974039,0.752814678,0.287789317,0.961132468,0.287744752,0.932639953,0.208389328,0.13600517,0.260120235,0.596243247
10162,0.712406068,0.227872215,0.860846903,0.186648328,0.512886003,0.604782892,0.833870425,0.29187863,0.07275047,0.344078259,0.353606019,0.429685589,0.313647062,0.274655978,0.110036896,0.138338618,0.035759888,0.791212001,0.260098957,0.204174417,0.087978222,0.840845671,0.598084635,0.917994039,0.917565827
10163,0.751609056,0.274163297,0.645685332,0.135131544,0.161540482,0.242477714,0.187794498,0.005754889,0.099708018,0.586683927,0.012861153,0.783101243,0.101126087,0.00388531,0.148743059,0.969071003,0.859028225,0.888578565,0.760248676,0.836377271,0.310744907,0.35413218,0.507223337,0.107428447,0.769535457
10164,0.350347901,0.22443176,0.051056895,0.764528968,0.692505089,0.882519333,0.194584415,0.482990649,0.610822648,0.133994008,0.823751654,0.243507593,0.800111458,0.248723922,0.946900533,0.905457167,0.801802773,0.398849476,0.033764761,0.135581562,0.902483538,0.842566159,0.039299336,0.66240477,0.282090626
10165,0.59811283,0.569801655,0.499587912,0.328558711,0.379934673,0.907950566,0.021540547,0.618082136,0.898430555,0.794281192,0.90506172,0.15656471,0.343737738,0.823488339,0.909495235,0.188815238,0.196690938,0.613036252,0.666700256,0.816535376,0.226454007,0.812324201,0.902596391,0.097513315,0.096745782
10166,0.178654169,0.544478856,0.540616763,0.984807706,0.769084787,0.561602721,0.066131859,0.217521685,0.549354698,0.093545105,0.35987265,0.962043382,0.196261187,0.285824259,0.605927922,0.677836297,0.818927768,0.571826621,0.276282904,0.353966415,0.58201266,0.5824315,0.531357629,0.355286485,0.072756344
10167,0.962656283,0.002270648,0.07377724,0.516194266,0.091304144,0.960396161,0.505261922,0.935026472,0.755293605,0.428233172,0.487591275,0.104155579,0.875893953,0.875829311,0.189621335,0.037764768,0.520879416,0.456517446,0.401904671,0.298302164,0.009961027,0.687957247,0.165931927,0.049753052,0.847174191
10168,0.898777775,0.182950021,0.206463201,0.526529878,0.566626228,0.349790236,0.435193661,0.975808336,0.035642393,0.966747413,0.828459515,0.189068395,0.965279973,0.793531405,0.393959649,0.529719874,0.864884918,0.052504382,0.945558179,0.913526904,0.32246307,0.000516259,0.517725655,0.951455837,0.371756997
10169,0.640986877,0.984911188,0.893270864,0.776141092,0.991248692,0.99628916,0.253127947,0.897421646,0.271948481,0.166775354,0.332855517,0.256824862,0.736565263,0.589221011,0.139197502,0.265911302,0.417348286,0.610031638,0.15295974,0.205485595,0.81557603,0.986972266,0.627716316,0.533930294,0.332064031
10170,0.747361636,0.101728915,0.99531564,0.353243526,0.375420819,0.336409645,0.365699265,0.138067112,0.544877036,0.847433106,0.658635772,0.314301218,0.189935244,0.470915893,0.739126094,0.361386175,0.197736154,0.051360087,0.939620187,0.931786836,0.07796293,0.157190328,0.008711958,0.29563929,0.456088534
10171,0.936050976,0.602567422,0.306752471,0.209452043,0.469636816,0.370587971,0.582756185,0.104561709,0.16676948,0.722170184,0.613686949,0.716618494,0.923572618,0.01004925,0.435258778,0.441209204,0.245854286,0.043967617,0.380988689,0.727116182,0.501938592,0.169458394,0.825850748,0.139345179,0.07436798
10172,0.965528803,0.061586859,0.719589105,0.230366216,0.76816478,0.505342433,0.378761065,0.650922244,0.630890785,0.355951919,0.221223732,0.939278749,0.147430585,0.786824196,0.321576204,0.270950976,0.874749027,0.359855351,0.118926474,0.641408509,0.976180025,0.0719131,0.1799427,0.288411781,0.75914838
10173,0.220177604,0.645296767,0.155339578,0.989731413,0.074307928,0.506377823,0.728487772,0.959549066,0.394521422,0.041599182,0.449207257,0.725311227,0.030249605,0.666035589,0.219580135,0.653381916,0.295986049,0.752509124,0.620128472,0.093101967,0.509742164,0.696258929,0.670880838,0.737095589,0.564247854
10174,0.047003873,0.507769447,0.852105513,0.509196729,0.933333306,0.839202906,0.298374341,0.21264624,0.080417224,0.472260463,0.743339666,0.860880016,0.580133358,0.449425709,0.508390926,0.454531052,0.217531974,0.821876733,0.269041948,0.39870961,0.357758062,0.421941409,0.149656487,0.737559134,0.258591167
10175,0.854459515,0.13760932,0.521880399,0.063492669,0.42719182,0.028218668,0.803603805,0.556392355,0.189810367,0.165441121,0.854218164,0.579200149,0.970113042,0.94188394,0.77956012,0.82540817,0.973902062,0.968979644,0.820845174,0.556656615,0.288706632,0.792574985,0.370988665,0.65735364,0.176272451
10176,0.271389141,0.276136284,0.647905563,0.052313784,0.370446622,0.830162677,0.877967102,0.550439524,0.07708111,0.452952552,0.718885658,0.791082815,0.728630872,0.046093904,0.602362349,0.110951743,0.428605534,0.108225148,0.948698601,0.604828994,0.657827722,0.197410766,0.855224309,0.299761874,0.790129825
10177,0.509288214,0.946105573,0.300591367,0.266657104,0.727127803,0.202155191,0.43341761,0.145684659,0.294561956,0.08437829,0.244653582,0.02472685,0.06526839,0.569607769,0.103892941,0.341742951,0.314918985,0.535878855,0.451001644,0.126693887,0.423467381,0.394041757,0.308960897,0.819211836,0.705174932
10178,0.45118754,0.435921713,0.033959534,0.591315852,0.633688606,0.907116937,0.174092732,0.354891498,0.398994702,0.022049596,0.330511661,0.58070892,0.545739305,0.043141846,0.288750967,0.395721543,0.743907483,0.010225067,0.110734579,0.895181471,0.567382158,0.115426242,0.593601132,0.444098229,0.170707499
10179,0.047301341,0.824922949,0.332072214,0.858642781,0.419559396,0.737792582,0.884345906,0.828238464,0.047934338,0.216539207,0.934863779,0.144003864,0.33594489,0.330418164,0.993626377,0.630917798,0.235573597,0.359099182,0.844733622,0.30180127,0.05693377,0.137318385,0.223356389,0.474095191,0.332788972
10180,0.560131521,0.399897633,0.627330935,0.493288043,0.24052154,0.055673571,0.240356221,0.444024105,0.552258543,0.868994869,0.588884285,0.095445759,0.309451981,0.838361612,0.059859968,0.113608381,0.18518899,0.546113735,0.176901901,0.356397487,0.956012916,0.391082979,0.110692937,0.793681187,0.612694924
10181,0.602139736,0.802578707,0.56161402,0.040956111,0.720600361,0.938787155,0.948845352,0.815965693,0.464273895,0.705054932,0.645107584,0.362706999,0.531637159,0.674519473,0.816657027,0.432232141,0.193647162,0.575190106,0.510656409,0.530015171,0.229685882,0.616630737,0.803711956,0.47453285,0.983344201
10182,0.042742778,0.38890556,0.603742123,0.600795118,0.426245826,0.167156264,0.114236803,0.895608038,0.731680938,0.867162478,0.837122493,0.204462701,0.402830292,0.556430803,0.660728611,0.675917835,0.590961149,0.236363007,0.741621191,0.721055587,0.250975141,0.308375086,0.252432487,0.687452059,0.380807272
10183,0.353145761,0.944175362,0.454471309,0.112822792,0.717107839,0.900626219,0.219141015,0.47587785,0.982016949,0.801248088,0.241447691,0.694998547,0.866755317,0.057629606,0.06760716,0.293797028,0.907085933,0.043716752,0.635728809,0.567980177,0.908493669,0.177515734,0.27159454,0.1862818,0.842718857
10184,0.356907079,0.276535011,0.92463266,0.94430153,0.324308804,0.404617777,0.034405582,0.156126167,0.574426692,0.203441506,0.973993707,0.382062317,0.078531731,0.440044692,0.554502492,0.077634458,0.849484096,0.630371041,0.693292963,0.990524909,0.697193163,0.209884003,0.778984882,0.922971963,0.10639591
10185,0.901504382,0.88188477,0.730726264,0.319117554,0.97077435,0.757519446,0.461160887,0.63177921,0.444858186,0.477836023,0.968086602,0.493692835,0.874283983,0.506591269,0.00308509,0.107413033,0.43505744,0.957546759,0.847011915,0.443220328,0.652696074,0.749706039,0.979160982,0.189600688,0.563308101
10186,0.613601152,0.797694008,0.883918449,0.024261141,0.63764678,0.124748175,0.612853945,0.846907764,0.254622287,0.012174709,0.11584802,0.387829098,0.203924749,0.56259956,0.10977708,0.604080804,0.024907213,0.172757124,0.899329294,0.025213486,0.121671205,0.154391904,0.794248151,0.281324445,0.520292476
10187,0.300890973,0.561578308,0.383189588,0.184907442,0.31004234,0.277089052,0.320737334,0.75107508,0.412862384,0.448179762,0.05436726,0.034508041,0.592823158,0.130901868,0.53190528,0.684375804,0.582098317,0.464799271,0.533185438,0.488637184,0.136948497,0.812862811,0.435289351,0.823516798,0.576360863
10188,0.599905649,0.60407243,0.9055175,0.643967816,0.5354961,0.162301077,0.327478641,0.064067601,0.652289693,0.412447482,0.727395208,0.018375989,0.346019313,0.035346594,0.424024024,0.83704232,0.147493113,0.408311558,0.194552373,0.073631013,0.253536019,0.894470117,0.955624029,0.642383379,0.564681031
10189,0.955385547,0.271225852,0.436707939,0.312366112,0.311577034,0.783615517,0.343788407,0.249923894,0.201477763,0.773790389,0.092352729,0.990845781,0.668778014,0.691698089,0.573361744,0.036722477,0.299237722,0.606241161,0.703879597,0.965572145,0.983195129,0.524907853,0.280503512,0.638954355,0.73485906
10190,0.962578663,0.075890636,0.396996253,0.219370508,0.806166102,0.667695617,0.157595188,0.70363724,0.917431355,0.905173539,0.225413128,0.327987557,0.512853064,0.114384205,0.94225387,0.995644121,0.520469735,0.356998867,0.168624699,0.933466053,0.353697025,0.079009716,0.127721573,0.960204206,0.081626394
10191,0.789985762,0.421232593,0.038556889,0.568743034,0.986847559,0.139990802,0.313453256,0.458007894,0.565034649,0.709135954,0.258083545,0.89750741,0.49282047,0.267805611,0.669792958,0.945423494,0.9268575,0.948824979,0.153518506,0.289479624,0.836940293,0.441338274,0.980411414,0.490896494,0.016178216
10192,0.206073551,0.01620599,0.70018108,0.56273877,0.467563229,0.987429716,0.72651604,0.621835908,0.359716771,0.400685709,0.704656744,0.978857332,0.917796663,0.865611793,0.978727991,0.862259007,0.5989206,0.314995462,0.999722236,0.915083809,0.878036713,0.474073409,0.753310271,0.912214468,0.463882829
10193,0.181875773,0.744195525,0.052051599,0.116148304,0.805047634,0.775648292,0.835732602,0.979297832,0.045469368,0.024889807,0.465327759,0.732703106,0.376428995,0.720703282,0.181057718,0.711625793,0.465659012,0.968519895,0.380463883,0.312391543,0.38157763,0.28891019,0.594545701,0.152907791,0.254779733
10194,0.745260559,0.094935642,0.061405756,0.009836958,0.250637126,0.530299052,0.996684539,0.703089053,0.786929558,0.036974957,0.071532045,0.680102874,0.738624228,0.137433536,0.467580149,0.324961632,0.502058921,0.421898658,0.608361427,0.691039355,0.729458288,0.711381283,0.718999832,0.456633811,0.708410089
10195,0.428968689,0.870421685,0.039007298,0.406791173,0.795249593,0.163406163,0.092059339,0.778866385,0.659011362,0.232019614,0.808121262,0.217205988,0.513657723,0.05209871,0.081799561,0.993333046,0.596928831,0.577109338,0.890664192,0.764152624,0.601377828,0.075249671,0.468814316,0.32694418,0.896477395
10196,0.24210824,0.7402287,0.521201095,0.501178449,0.868005829,0.147924021,0.095478386,0.965782068,0.784930121,0.32547506,0.937318125,0.333476242,0.218950283,0.896959878,0.615205782,0.170683377,0.303764797,0.999566787,0.371158062,0.221102724,0.599993886,0.612764112,0.238450239,0.606249033,0.480886119
10197,0.600295859,0.234251146,0.115858087,0.924532825,0.409684035,0.330493463,0.147840633,0.479799313,0.330400246,0.402342012,0.010911481,0.561122309,0.578826143,0.447724954,0.436725743,0.858583155,0.765329118,0.966379457,0.935058764,0.320376134,0.948463255,0.624176796,0.221102355,0.798833109,0.025698544
10198,0.7964789,0.100062637,0.936977313,0.645414273,0.079819842,0.175510663,0.041974689,0.379681046,0.882962422,0.109505315,0.854918278,0.915586711,0.008419573,0.266089452,0.936256628,0.840366678,0.507458569,0.560575378,0.567311119,0.597373528,0.896007826,0.106718178,0.467390005,0.318911881,0.407112687
10199,0.495963221,0.633894215,0.070921868,0.46441165,0.889996394,0.548422242,0.028426499,0.039221646,0.893077798,0.384794106,0.989887245,0.836871878,0.900183502,0.772261097,0.613853392,0.290195293,0.223789804,0.195474215,0.617091159,0.244812435,0.313572,0.888538504,0.311035027,0.976524362,0.545907323
10200,0.569388521,0.110477612,0.922182034,0.00075787,0.540737789,0.112928279,0.570662346,0.418496292,0.281706817,0.029660164,0.583554712,0.477429961,0.747155549,0.055231201,0.487738513,0.136420404,0.863701631,0.169858901,0.142911801,0.158860521,0.382179206,0.183298732,0.195238075,0.188969956,0.03539129
10201,0.348549079,0.328646595,0.46554535,0.243920348,0.748186402,0.675975294,0.987408359,0.370482274,0.282354868,0.10254604,0.31491648,0.752322629,0.464229719,0.447880596,0.796556198,0.790419507,0.409447296,0.001462103,0.850666521,0.68838104,0.527638267,0.738611422,0.377698994,0.70388805,0.75511418
10202,0.153306154,0.906242584,0.430107073,0.072516023,0.203659298,0.202136819,0.160686624,0.713503463,0.380788251,0.745582619,0.603285212,0.016392676,0.373648041,0.184513733,0.21050194,0.267219011,0.103186959,0.145937585,0.151434414,0.143106802,0.638661603,0.517184177,0.711079783,0.016470638,0.306850044
10203,0.377570099,0.107985086,0.821103772,0.076634421,0.869993066,0.965829633,0.216391269,0.358253229,0.855866309,0.918942018,0.963788421,0.635702971,0.335046677,0.578134054,0.36708321,0.666940404,0.099277306,0.499121768,0.92322044,0.705932531,0.965296143,0.412137771,0.78551477,0.205096656,0.041728231
10204,0.411565713,0.848399911,0.079855815,0.90461708,0.636170365,0.910315322,0.918055709,0.871958448,0.734078757,0.875332061,0.893229365,0.749450468,0.83156227,0.468247238,0.224566215,0.202201512,0.224687193,0.97199916,0.515959609,0.506916485,0.732402691,0.153911048,0.214304411,0.128261228,0.41148637
10205,0.573940933,0.892359344,0.56503157,0.1682003,0.660379903,0.124892698,0.273024344,0.095034667,0.198895283,0.877724848,0.536802434,0.227847607,0.440954626,0.966470365,0.125927346,0.091611804,0.319422042,0.825941828,0.687469214,0.741435672,0.523351548,0.607195361,0.686185124,0.364079075,0.625812063
10206,0.701531418,0.265780424,0.211019226,0.746885846,0.068469547,0.399828844,0.178619759,0.200715393,0.997559849,0.165828804,0.008074673,0.440833462,0.82963071,0.993054055,0.067561085,0.66735538,0.013862758,0.236674708,0.488874333,0.841521464,0.441233275,0.806160177,0.797691954,0.580521257,0.671755628
10207,0.795662389,0.710128215,0.968679473,0.201439719,0.17754577,0.359372795,0.6998635,0.883477497,0.216553072,0.348421809,0.090738133,0.635830642,0.728655692,0.171417263,0.8593276,0.457144588,0.208085015,0.094956203,0.683809095,0.378836177,0.940666275,0.783291187,0.54759481,0.067465387,0.392408764
10208,0.994862797,0.575518142,0.354127861,0.561645319,0.465991806,0.11455853,0.00136788,0.109018212,0.168483043,0.216436464,0.874439918,0.221169156,0.354525797,0.879031605,0.789203576,0.49694747,0.459047243,0.987137376,0.054833191,0.301648152,0.355332049,0.875547653,0.286631282,0.7925625,0.028567299
10209,0.501241078,0.753484311,0.444876043,0.457767304,0.521986163,0.719119078,0.237382888,0.785162595,0.96300401,0.984857865,0.971944241,0.4946342,0.297937357,0.612195225,0.309261,0.576667121,0.99955006,0.960923455,0.928577419,0.553230814,0.793309866,0.446078325,0.966142871,0.142311407,0.383155351
10210,0.202939431,0.029310483,0.069687994,0.749530574,0.070774414,0.386188774,0.603984677,0.91684879,0.214048055,0.149165465,0.698166384,0.32540624,0.743513628,0.034905461,0.996114356,0.957194974,0.759064716,0.903695547,0.777101501,0.698732278,0.447326638,0.242697178,0.358318989,0.513017336,0.006268656
10211,0.546318957,0.761831083,0.741632659,0.639993268,0.589856262,0.850815357,0.209988528,0.751971956,0.176750558,0.047166877,0.260780576,0.806453968,0.032718992,0.415299117,0.611370201,0.329869226,0.757025527,0.163329262,0.423022927,0.97651757,0.768250231,0.986315938,0.548535859,0.619609687,0.873302971
10212,0.943087353,0.320907369,0.743025388,0.645583097,0.276449885,0.377394016,0.868554854,0.97024457,0.703586556,0.376216066,0.763454624,0.640490837,0.538803456,0.416321079,0.600053015,0.617871983,0.074675781,0.356253242,0.339654696,0.469582173,0.481910997,0.402772794,0.812875312,0.327586022,0.562750795
10213,0.59301935,0.949341477,0.500352432,0.365545525,0.794341105,0.072481731,0.959328711,0.835234723,0.881611435,0.891084604,0.349221181,0.008366593,0.237452677,0.367258145,0.688516192,0.236572929,0.085973198,0.418566525,0.034313126,0.412649299,0.73211375,0.8545277,0.901332835,0.729209144,0.806900889
10214,0.742914665,0.408673327,0.668818987,0.597916272,0.096395168,0.009517842,0.986190604,0.165978195,0.184325943,0.592493341,0.077005525,0.47063898,0.363865728,0.991054784,0.281132958,0.073463599,0.429613275,0.450198237,0.559024916,0.886018815,0.749231974,0.861050949,0.731463804,0.206911469,0.341939776
10215,0.424673835,0.715756029,0.347594553,0.7316288,0.731569088,0.030726888,0.275896946,0.458654057,0.88223928,0.774267329,0.921368609,0.825230867,0.584978902,0.180236783,0.769464933,0.832354078,0.441571269,0.086267217,0.138884887,0.644548659,0.00781325,0.934575404,0.576120368,0.518891397,0.175351267
10216,0.812082699,0.538181138,0.954882332,0.175853784,0.498054654,0.528456859,0.119977685,0.31566437,0.746568342,0.086675971,0.483135,0.044546622,0.211379215,0.299533956,0.321540648,0.879281688,0.790742873,0.208666986,0.530536311,0.975741695,0.670358428,0.962786194,0.467786135,0.469739532,0.232109113
10217,0.152243901,0.293612077,0.695784139,0.699605122,0.307326266,0.306979386,0.675104562,0.757175736,0.140826129,0.695413161,0.914755437,0.298289413,0.960422093,0.053182644,0.367077153,0.734813766,0.957411086,0.259065308,0.857596732,7.02468E-05,0.90484567,0.662379202,0.12149317,0.286584912,0.954875309
10218,0.761239963,0.945077899,0.212389183,0.397213744,0.321181793,0.556915063,0.715036291,0.363472507,0.518431762,0.33997854,0.540574832,0.655549086,0.335891072,0.681039347,0.967910719,0.498432377,0.778879534,0.828631035,0.758058822,0.154610669,0.243929867,0.366792488,0.826778187,0.222365958,0.327118462
10219,0.019069956,0.28814092,0.268790594,0.680122732,0.700554255,0.241878601,0.954300452,0.34923811,0.403893099,0.66660773,0.643257014,0.435562122,0.884606512,0.168242673,0.632699386,0.229041513,0.854838644,0.324452262,0.558083201,0.364768764,0.47442453,0.699390086,0.836713217,0.028282625,0.474440378
10220,0.644922847,0.278337068,0.216511106,0.325747976,0.791816327,0.266398298,0.522585934,0.348005868,0.249088558,0.403370594,0.974376316,0.24144476,0.709442439,0.861828694,0.973567159,0.440496115,0.688960091,0.84381883,0.776199252,0.200313942,0.639489713,0.418577505,0.936628787,0.190364982,0.350988057
10221,0.379443676,0.905573057,0.318812229,0.224064272,0.418398543,0.539734892,0.747585895,0.617322896,0.072524428,0.652843745,0.077542554,0.229055183,0.239497714,0.309082937,0.890792938,0.104833872,0.758361662,0.161628904,0.21408144,0.937512937,0.667994519,0.700000538,0.83009616,0.653056194,0.263560325
10222,0.669208487,0.852589305,0.514465335,0.019415153,0.516831035,0.871090978,0.798530136,0.435321494,0.055794093,0.453492937,0.38644311,0.328737471,0.161027534,0.905578937,0.337413792,0.196665992,0.696294591,0.414034092,0.720175196,0.123727905,0.224736506,0.553416315,0.86070511,0.962532947,0.860416999
10223,0.387428508,0.678357552,0.531093557,0.664345998,0.376495266,0.33662705,0.91998433,0.924687312,0.301940373,0.021050155,0.189318886,0.700856149,0.68320869,0.591541858,0.665250965,0.298085372,0.024334704,0.641994809,0.841731483,0.332459166,0.732069722,0.89706266,0.995164249,0.156560338,0.903563593
10224,0.980193641,0.139565219,0.928092614,0.63045893,0.736634826,0.966659316,0.378065684,0.467022881,0.243005663,0.701299318,0.048324848,0.424813397,0.619762483,0.09321531,0.325358549,0.411549399,0.903551808,0.772268546,0.172466969,0.617325053,0.856986197,0.04619633,0.103624493,0.955903951,0.617511584
10225,0.589346908,0.048848653,0.31927386,0.002949243,0.788689379,0.874165727,0.059543048,0.41502536,0.750411058,0.736550333,0.896952504,0.744564171,0.486265993,0.725106335,0.542347188,0.234391986,0.1008415,0.237015075,0.164317496,0.718317505,0.198550107,0.243292785,0.731032032,0.080175263,0.419998134
10226,0.66600182,0.655918316,0.308312445,0.498839489,0.049012429,0.241301016,0.87538376,0.867038039,0.225357998,0.847455032,0.26487134,0.701782739,0.234275978,0.426835465,0.733191026,0.969755902,0.12489663,0.698529258,0.957423055,0.590724412,0.568337286,0.448465848,0.356796963,0.200733067,0.916947149
10227,0.407815257,0.587573105,0.937103162,0.285517089,0.297938109,0.155659197,0.225038646,0.586145846,0.597309508,0.896177703,0.583810894,0.508245717,0.618936333,0.942228687,0.623212204,0.041055003,0.463439365,0.810076469,0.505538966,0.334389823,0.192693224,0.42791735,0.402574193,0.253383444,0.405286265
10228,0.799123241,0.465579684,0.214147056,0.718380738,0.826805118,0.74533526,0.727025357,0.801076282,0.607490606,0.262849037,0.896238596,0.155745573,0.48756008,0.181534067,0.134260336,0.035965809,0.20980567,0.325735306,0.689288683,0.394560476,0.266800647,0.418703678,0.750538805,0.939069671,0.488912414
10229,0.710283456,0.441632112,0.490835782,0.012059825,0.08606583,0.666143053,0.561671252,0.60513736,0.713684652,0.017738374,0.725817734,0.653623818,0.620903134,0.167016927,0.691552752,0.127846788,0.000566345,0.434196263,0.861791752,0.065260706,0.308761512,0.486380617,0.700916026,0.727772037,0.573744715
10230,0.460192349,0.691027227,0.409085654,0.504346217,0.538489432,0.16240647,0.425597903,0.472733873,0.11309655,0.833147532,0.963308303,0.028677332,0.359587628,0.643935902,0.93102594,0.714746508,0.133968539,0.918481581,0.485026285,0.567611392,0.439351053,0.700930025,0.738164103,0.475568258,0.758374076
10231,0.774581113,0.429087273,0.029065296,0.231011672,0.637005197,0.362661543,0.462932421,0.011425452,0.539496367,0.756178366,0.706331903,0.392859844,0.161472673,0.48142065,0.297855707,0.540829299,0.234044288,0.611477524,0.622028664,0.117853638,0.174019332,0.616276681,0.187465065,0.916801148,0.09994572
10232,0.238913557,0.203167734,0.658305311,0.016117722,0.184497467,0.745309481,0.017758283,0.485107086,0.178332131,0.079184124,0.196584862,0.973601864,0.32743673,0.433738656,0.019411314,0.552297516,0.449722452,0.492548732,0.131165506,0.803624264,0.622408856,0.803239908,0.103962802,0.039590194,0.576397983
10233,0.453586334,0.33585674,0.262182857,0.372092387,0.439023503,0.608250208,0.672963286,0.740662683,0.811175974,0.223617382,0.976086151,0.131545975,0.595532876,0.257401339,0.646972215,0.604514044,0.142369521,0.660589715,0.16567297,0.211199431,0.78036605,0.590846444,0.45142305,0.175968012,0.863846312
10234,0.215029509,0.904997603,0.367734936,0.377249164,0.407485326,0.764692294,0.949313555,0.554901126,0.365356717,0.690434019,0.479457927,0.32427424,0.429224514,0.062749746,0.456396709,0.732771392,0.526026017,0.867066342,0.435043034,0.785794733,0.739607037,0.240111092,0.544968773,0.876119365,0.278542801
10235,0.769683376,0.84494307,0.420644847,0.157801565,0.803764402,0.211665662,0.945026734,0.141856409,0.550884088,0.780866496,0.574003966,0.892965683,0.002118712,0.620541288,0.586065484,0.901328212,0.401972619,0.294570889,0.869160394,0.834110259,0.023178359,0.598239459,0.347543257,0.98369244,0.572922726
10236,0.665336189,0.22156305,0.933098944,0.348604828,0.723368786,0.263547036,0.077432402,0.450117383,0.451585711,0.966468592,0.823759384,0.933552793,0.531336772,0.279971967,0.094147664,0.905527704,0.03364593,0.146600133,0.757175222,0.614657591,0.293958586,0.632988165,0.99643991,0.518055633,0.509007214
10237,0.410433519,0.381989879,0.035745332,0.592590689,0.407656778,0.853475798,0.341562628,0.818363193,0.166754548,0.764438406,0.248679385,0.235558926,0.943090235,0.093503351,0.401729579,0.510723098,0.477213679,0.540753411,0.649484586,0.740714945,0.102441771,0.764071529,0.381212509,0.237177645,0.658341876
10238,0.228959103,0.417903858,0.965743878,0.590738074,0.724193193,0.969935748,0.01558797,0.42168526,0.043017984,0.317312121,0.930982295,0.159179973,0.581492625,0.030037341,0.947237816,0.409105678,0.313625468,0.172301737,0.598264907,0.550774624,0.998701188,0.310474437,0.590138989,0.25533968,0.124137144
10239,0.198291258,0.61625492,0.025225809,0.641285449,0.911426375,0.369803753,0.041527234,0.322565507,0.852567613,0.273699338,0.6439024,0.096934902,0.125552939,0.658483685,0.778208881,0.044520091,0.924169596,0.602983381,0.780307019,0.028468824,0.747487928,0.597776078,0.298127066,0.17603226,0.903198949
10240,0.626269026,0.807098963,0.403067804,0.232924682,0.028739478,0.842550148,0.770580189,0.474896156,0.447707315,0.638164935,0.930000268,0.940329443,0.942103245,0.677420373,0.490530604,0.61203594,0.046429106,0.622342619,0.204348862,0.678945526,0.085501207,0.410353957,0.743545995,0.498454419,0.556698568
10241,0.431561387,0.290445889,0.884798319,0.207263987,0.597481756,0.392004919,0.631088404,0.834817811,0.960169431,0.359617318,0.585461634,0.360671895,0.266493867,0.636540024,0.490740961,0.127369662,0.040812619,0.765319644,0.370102251,0.070655223,0.522207969,0.95421438,0.744082469,0.141358719,0.026418592
10242,0.381812782,0.599138698,0.849876556,0.20068873,0.370469019,0.572159099,0.172019695,0.261935706,0.606669933,0.556590796,0.542346173,0.482773833,0.669655203,0.528847028,0.326753309,0.789516669,0.456029716,0.692445113,0.794222515,0.333976329,0.802766015,0.847938744,0.856937614,0.584406688,0.070090294
10243,0.312527308,0.710544859,0.196147588,0.104602404,0.46273615,0.329868377,0.697968631,0.652409564,0.709402607,0.251598125,0.332098933,0.180436074,0.03424444,0.466549151,0.905069285,0.768139908,0.54143881,0.818232674,0.352289645,0.07041004,0.833750159,0.151622729,0.430382647,0.939386095,0.455857215
10244,0.010079184,0.014025584,0.720900949,0.346109349,0.457916941,0.315213419,0.379872806,0.33507675,0.66384426,0.981435451,0.169753128,0.044789848,0.053831311,0.540987286,0.782126786,0.139062159,0.349405562,0.308424813,0.116327502,0.927654541,0.159278106,0.284043193,0.434692513,0.67105837,0.023637458
10245,0.494852991,0.093216257,0.690757952,0.907917605,0.070190752,0.249039805,0.093571535,0.415809545,0.788469691,0.340897993,0.209684918,0.573958359,0.893043,0.364304861,0.086684357,0.929757572,0.039784688,0.663493621,0.169637954,0.803372981,0.464063222,0.04389371,0.287788166,0.629400809,0.709255406
10246,0.92763708,0.145069321,0.645157462,0.99756596,0.309327994,0.433039273,0.4441763,0.085129242,0.677438817,0.297017303,0.501807688,0.462756486,0.008619778,0.791621308,0.962204417,0.32406032,0.861871589,0.228817576,0.156958323,0.206462382,0.111007214,0.22898259,0.583861681,0.05420602,0.627794946
10247,0.790483827,0.997394628,0.5837999,0.610144299,0.913339742,0.702252095,0.857347866,0.696293018,0.7568153,0.478261819,0.190735918,0.069646633,0.120406577,0.795677053,0.745967142,0.067781836,0.156764312,0.119208664,0.094441751,0.514170704,0.073697067,0.925798482,0.642178187,0.861289299,0.019203336
10248,0.512040308,0.972053896,0.090474428,0.359054345,0.401836704,0.165516711,0.547305352,0.566684563,0.89460949,0.442621995,0.505041305,0.237817961,0.419283046,0.608851807,0.192877189,0.006214065,0.793146979,0.30840257,0.342764959,0.963971603,0.859575312,0.518202656,0.829806172,0.890525585,0.135529711
10249,0.846506731,0.256762057,0.705462009,0.126894767,0.089261078,0.675319987,0.564056978,0.549918897,0.643458636,0.275223392,0.213472988,0.981234533,0.909824936,0.229475099,0.910218246,0.521760454,0.224313583,0.939752392,0.538517191,0.754945854,0.53779569,0.06307241,0.854603164,0.598445028,0.7579395
10250,0.572353762,0.121154313,0.044023428,0.368910442,0.889227659,0.306158437,0.292052734,0.757974337,0.789929857,0.21805535,0.130445604,0.098272877,0.760565463,0.811741031,0.892992104,0.036557681,0.689866668,0.412608489,0.493767021,0.362476954,0.973618403,0.532792837,0.337151577,0.840651571,0.296753271
10251,0.651456837,0.855754538,0.076812862,0.222870571,0.165937433,0.556284161,0.44871327,0.846590184,0.529617479,0.305706329,0.453003367,0.834015324,0.765247468,0.749840182,0.655149988,0.105896542,0.11384718,0.64945878,0.902959925,0.527423586,0.803277341,0.616687564,0.198413772,0.532982451,0.399576014
10252,0.188404275,0.806928661,0.781447829,0.588976613,0.372127487,0.538648612,0.748169065,0.807561066,0.971061733,0.96209562,0.498272038,0.656908579,0.043767338,0.280764127,0.661434882,0.012418303,0.837473852,0.58952789,0.197889779,0.852172936,0.678548504,0.162120195,0.841685584,0.038971632,0.793275658
10253,0.315243279,0.791787598,0.589617473,0.887331586,0.06243739,0.424948169,0.370760215,0.271910652,0.615055503,0.382026451,0.112436591,0.880570556,0.155448607,0.852244896,0.197661298,0.428140153,0.374073848,0.140112473,0.093174595,0.140139881,0.714839615,0.721002224,0.13896622,0.259511207,0.944242524
10254,0.582827525,0.64730627,0.166331178,0.194668673,0.712453815,0.614500664,0.821547088,0.821083294,0.07297358,0.887267258,0.704334214,0.400028007,0.722852945,0.042366891,0.449602857,0.675834923,0.19698991,0.021662395,0.657985898,0.180813267,0.503140277,0.106950613,0.592560624,0.019524206,0.348012645
10255,0.394946767,0.316499981,0.566998875,0.954761471,0.422295438,0.025466561,0.963521781,0.839564741,0.145041351,0.279488035,0.635500123,0.804662511,0.997409706,0.88593181,0.680628165,0.074725318,0.765767998,0.541906176,0.038370127,0.476627487,0.87141561,0.756848323,0.855916697,0.570653634,0.146219353
10256,0.994511497,0.687384215,0.37148413,0.05974512,0.696989981,0.324625679,0.730493574,0.924368127,0.455584738,0.701951235,0.072768175,0.19876253,0.214618009,0.357613036,0.305136823,0.950246524,0.490378866,0.26876594,0.067427638,0.667383118,0.937345218,0.939829845,0.696547159,0.209900953,0.226284962
10257,0.900369375,0.135653538,0.875532053,0.191851303,0.066303234,0.246912318,0.674761209,0.247712044,0.042393478,0.949917738,0.98076681,0.805528415,0.983100875,0.689784952,0.367696006,0.893803119,0.130218217,0.876874983,0.865426823,0.366216143,0.729118689,0.718814779,0.760440696,0.758625909,0.111079126
10258,0.561368269,0.496238789,0.425610225,0.988195115,0.048953751,0.15014692,0.297208473,0.181407923,0.528882612,0.235811374,0.468403933,0.448938785,0.884090457,0.353225845,0.16910175,0.064611562,0.352244846,0.698534632,0.075692643,0.672560562,0.192270526,0.84987101,0.306394581,0.688532389,0.996592672
10259,0.557878724,0.507232242,0.843466772,0.798430811,0.376345461,0.191545927,0.493961162,0.124061803,0.045415894,0.282507146,0.855735902,0.310010653,0.910576014,0.071162811,0.547063153,0.332191422,0.117882444,0.422987442,0.967431295,0.128857894,0.34507061,0.830018646,0.545818401,0.472606892,0.906866529
10260,0.406047724,0.150200669,0.3427344,0.854457006,0.589362938,0.025716135,0.213019861,0.943506832,0.578247662,0.292476332,0.748207435,0.514454145,0.70974163,0.224226429,0.415073929,0.48036964,0.467254614,0.028868577,0.565048802,0.965117293,0.842821645,0.365261578,0.896425206,0.462807725,0.481830468
10261,0.537580894,0.053949467,0.435381984,0.407264671,0.070802633,0.985453708,0.018910595,0.103115336,0.694643086,0.704562881,0.245848238,0.509472734,0.940298905,0.873483037,0.041586569,0.444790714,0.641272541,0.504515835,0.385520577,0.818818629,0.315852075,0.616905386,0.235572378,0.772340624,0.658377668
10262,0.747757286,0.522664299,0.450095981,0.348417504,0.695960149,0.191073372,0.034373091,0.143505312,0.754496203,0.169790511,0.70906771,0.132906134,0.29561239,0.266610877,0.740378393,0.148690877,0.186974738,0.587078006,0.436193058,0.926954086,0.370290418,0.930506069,0.762749397,0.671327142,0.388818361
10263,0.070911147,0.791045161,0.290180487,0.33640953,0.254395462,0.509603167,0.314482649,0.154443444,0.611958468,0.378594614,0.586791999,0.65003732,0.377686284,0.88950302,0.047757683,0.642187194,0.790565531,0.039061607,0.463294211,0.312075441,0.212925253,0.710936121,0.881225683,0.103620134,0.346977223
10264,0.841612224,0.90425549,0.61324915,0.033455133,0.774089314,0.522045519,0.339750039,0.981153844,0.388173264,0.476490498,0.097498453,0.925169056,0.90774238,0.906128464,0.567418311,0.038632255,0.397129072,0.037090435,0.614124011,0.625406932,0.170608739,0.216571347,0.096382702,0.61672123,0.742332623
10265,0.337485582,0.781068124,0.146833359,0.909572829,0.490367551,0.626910842,0.661858755,0.865248025,0.489324396,0.864181416,0.893625295,0.421347211,0.328345179,0.753992796,0.268214677,0.359859678,0.70664867,0.350256024,0.667359943,0.37464451,0.964497933,0.607940342,0.929347307,0.634275204,0.130444821
10266,0.552603388,0.770642598,0.36473783,0.8991692,0.450688842,0.763112126,0.044085701,0.313865469,0.836113322,0.462776653,0.871497344,0.707270187,0.219561286,0.716412021,0.400051273,0.850480894,0.807744549,0.540623833,0.24254458,0.990452613,0.517462884,0.29500077,0.735395247,0.340902532,0.74754917
10267,0.408480364,0.156041172,0.219146024,0.874983437,0.222117782,0.514775242,0.902239061,0.603162809,0.588521358,0.726743784,0.635775671,0.954371108,0.789194247,0.892611779,0.467772294,0.333960608,0.671659041,0.347768165,0.540557487,0.478986007,0.137376163,0.54179633,0.381199547,0.822826783,0.028040253
10268,0.155509219,0.035712868,0.627276361,0.815584302,0.904090799,0.702647296,0.562155012,0.758867443,0.649713539,0.709434251,0.874272135,0.049413094,0.418178226,0.9405044,0.730681122,0.874816539,0.297252667,0.907428081,0.520201258,0.186373076,0.09386611,0.863060421,0.131219412,0.258808911,0.831178234
10269,0.727013054,0.567164901,0.917268961,0.692655109,0.50149495,0.281426296,0.755314072,0.488374389,0.724376465,0.575631659,0.506061001,0.541960968,0.082926134,0.130607137,0.421168181,0.310573019,0.581536836,0.179234636,0.630069331,0.948147991,0.970937856,0.850303048,0.423436533,0.688328777,0.013359366
10270,0.424615677,0.013989049,0.346619561,0.105354326,0.064658425,0.163332497,0.119596967,0.403572386,0.822888085,0.210564852,0.968560503,0.049521744,0.411477007,0.576579659,0.604347295,0.743843119,0.992848472,0.49914758,0.293604311,0.435538709,0.087014849,0.593574835,0.345646009,0.24463822,0.537224168
10271,0.61708966,0.810574418,0.026731674,0.729143691,0.363922376,0.439658011,0.974570158,0.45631725,0.978475465,0.952968348,0.521123743,0.413705611,0.271043995,0.332952207,0.939345188,0.683254618,0.647520721,0.904649634,0.50386492,0.218194453,0.876075475,0.238379882,0.358563974,0.279149449,0.84765325
10272,0.625726021,0.720537954,0.18969834,0.729119902,0.84287243,0.632044763,0.526223687,0.677836232,0.939633052,0.866339894,0.988841026,0.368549274,0.735919194,0.149918156,0.263439815,0.214955971,0.244171592,0.480571668,0.631866932,0.951700271,0.011769999,0.760380451,0.73199843,0.339323172,0.599803752
10273,0.733711147,0.319621389,0.443578668,0.603674988,0.493011403,0.715543269,0.892292428,0.866600396,0.035482207,0.517254688,0.839173788,0.844478094,0.206315286,0.343982875,0.138598799,0.89367273,0.456414909,0.16529531,0.968823386,0.975628725,0.554844849,0.628931736,0.053883453,0.005276238,0.820377293
10274,0.515092889,0.080605034,0.126897974,0.162760671,0.198377345,0.223224226,0.919709619,0.75333354,0.789827375,0.882743548,0.775480625,0.838430904,0.446176449,0.036671318,0.670490401,0.967390602,0.988726703,0.966514784,0.17166575,0.37029005,0.539986722,0.799927228,0.715043838,0.176675637,0.217428617
10275,0.454738137,0.775217542,0.874255797,0.128620804,0.379410753,0.571053965,0.43138905,0.892150021,0.947163141,0.629074138,0.47011229,0.39165463,0.164466184,0.016883635,0.995723588,0.696967245,0.537968081,0.296091072,0.535563658,0.787604926,0.627979238,0.286311385,0.60280515,0.216645303,0.580042789
10276,0.557338827,0.653954791,0.026259626,0.354334769,0.176723285,0.616064975,0.091386201,0.237850503,0.276901342,0.473143945,0.323376453,0.301771738,0.731455028,0.319184465,0.865669085,0.325972793,0.020854429,0.462871346,0.07978722,0.312148308,0.884747563,0.902683559,0.404504525,0.51935718,0.737219229
10277,0.886614971,0.073296415,0.041799386,0.292788604,0.061782682,0.007508574,0.982278947,0.903720422,0.851187807,0.420501054,0.449175003,0.1654634,0.057703656,0.926174197,0.590197499,0.046252274,0.023952099,0.087577482,0.759128755,0.780532629,0.983545991,0.805195928,0.757592301,0.760159513,0.91404127
10278,0.322074497,0.617313164,0.941893137,0.642100012,0.120025001,0.685551943,0.319349854,0.462917715,0.160021129,0.512131033,0.230726677,0.331888737,0.776011089,0.7419367,0.074309868,0.106465143,0.141043874,0.675363357,0.6254828,0.445367407,0.855032438,0.45210346,0.087754961,0.614435764,0.753120292
10279,0.657869885,0.828237235,0.854141177,0.186450274,0.936743071,0.257538681,0.762792516,0.208523387,0.303502391,0.125445748,0.612620546,0.73758295,0.139088398,0.912451482,0.433358781,0.80499188,0.895799804,0.977426107,0.065224871,0.679702594,0.241438499,0.495878158,0.139200741,0.935360296,0.904503215
10280,0.316341439,0.151870487,0.631565272,0.27159873,0.487245222,0.391662258,0.33544334,0.257812933,0.886868685,0.889217535,0.779821701,0.578890648,0.466667167,0.185377701,0.131476836,0.330924185,0.025221592,0.972708313,0.113178564,0.270529467,0.535694807,0.048926566,0.819008436,0.408604191,0.129186958
10281,0.919030487,0.434173845,0.307351834,0.939819267,0.104698679,0.051632401,0.243163777,0.540606908,0.515781998,0.270022607,0.988737033,0.329384829,0.541302156,0.320911186,0.529211228,0.829489605,0.948136656,0.478417052,0.541352243,0.410192266,0.18809609,0.137001305,0.017289239,0.829514523,0.612894786
10282,0.883627088,0.212442537,0.174128918,0.816701624,0.49162349,0.127911588,0.567148036,0.092836316,0.972982135,0.332037171,0.203522409,0.400444786,0.721762015,0.871324905,0.107495145,0.58241145,0.257276975,0.011920708,0.559185231,0.413361617,0.111392784,0.586607925,0.800806089,0.560166539,0.022693219
10283,0.063239793,0.100303113,0.9805482,0.740898459,0.13958042,0.475049278,0.104667774,0.631324677,0.708728566,0.077569248,0.50556038,0.669271456,0.800112924,0.789047956,0.648826485,0.687108721,0.07534111,0.133829903,0.093648048,0.152989051,0.744505687,0.022356925,0.479928911,0.962723016,0.424758203
10284,0.49827672,0.349093901,0.567360327,0.669275542,0.8274131,0.060603541,0.06477398,0.351216794,0.973383532,0.272129454,0.598356129,0.958816148,0.107152238,0.15711071,0.748436645,0.170664356,0.121789424,0.781054287,0.646009159,0.314246416,0.475117903,0.806514767,0.781428123,0.742178247,0.141014704
10285,0.191645358,0.423834068,0.577031067,0.784162535,0.181267539,0.599707541,0.909338175,0.865099825,0.181540404,0.152854647,0.017443355,0.590013907,0.753229367,0.090240847,0.481907728,0.446933862,0.819978562,0.236243638,0.934668398,0.613710485,0.18249823,0.277054206,0.236227033,0.452200101,0.227381295
10286,0.838323956,0.963182439,0.141647406,0.444539374,0.898408296,0.855503777,0.921735989,0.129146866,0.328365979,0.100154822,0.520217062,0.774207654,0.818137342,0.900707292,0.16178372,0.658225774,0.185318372,0.852644555,0.160211086,0.73972447,0.787148124,0.307681347,0.985806796,0.508916883,0.834431684
10287,0.871727773,0.694634144,0.699625747,0.660501223,0.51826073,0.424120862,0.159607518,0.210549332,0.154665039,0.125927799,0.257929055,0.576165198,0.108045507,0.245325954,0.969884801,0.241886043,0.002207826,0.402694632,0.180913691,0.915360507,0.470588921,0.187233833,0.530386301,0.609698247,0.367986396
10288,0.97657189,0.652085214,0.170235119,0.54155024,0.089913328,0.987910914,0.948756257,0.498000238,0.173973417,0.645869477,0.432772225,0.646656474,0.233231585,0.679435646,0.353275122,0.910898871,0.378921763,0.745246299,0.120818543,0.52671157,0.823888358,0.064573915,0.088334637,0.420526827,0.017692165
10289,0.23525737,0.605532469,0.114896947,0.006765657,0.963023717,0.208048534,0.889756286,0.184362047,0.437537883,0.359359857,0.303063607,0.263684112,0.545535697,0.688920247,0.693186777,0.381659886,0.381989736,0.484999114,0.531114738,0.532729156,0.349835816,0.788233116,0.084702201,0.951447887,0.417512682
10290,0.417932996,0.153980809,0.77150227,0.707024387,0.385529737,0.364995958,0.189535279,0.882637673,0.805013924,0.256773318,0.187429764,0.25643443,0.075553626,0.722583366,0.594624348,0.608970614,0.931673847,0.862927489,0.341426305,0.850949281,0.561623663,0.766964149,0.587686442,0.240812718,0.291001466
10291,0.48016528,0.041556778,0.500603174,0.70541139,0.953939129,0.299257354,0.548121984,0.958709926,0.917284203,0.540294395,0.37653429,0.072584032,0.122753031,0.621249575,0.229210111,0.565345894,0.790914872,0.25006749,0.817624268,0.873165724,0.747771998,0.793156154,0.740747657,0.442182394,0.137117263
10292,0.96047809,0.185323683,0.439690203,0.821361755,0.633965632,0.417615134,0.588420607,0.709529442,0.71383211,0.85297771,0.214049984,0.880838351,0.447763264,0.69274808,0.41836028,0.944897619,0.358159671,0.869728259,0.534804029,0.747741344,0.415579406,0.093769288,0.180581064,0.3617663,0.970490884
10293,0.423711603,0.932635027,0.207006434,0.633120646,0.239722942,0.111758458,0.122889723,0.889318638,0.796395845,0.948714274,0.711140471,0.464315715,0.425683896,0.423741644,0.849441786,0.477131193,0.829731831,0.181547011,0.940452988,0.126071247,0.731628316,0.283784984,0.45196074,0.658501707,0.610215924
10294,0.200915877,0.840477231,0.417406466,0.300849862,0.028823506,0.259384317,0.887462474,0.77444409,0.022182988,0.917497517,0.267328897,0.334319923,0.749063669,0.68221293,0.55681621,0.691860895,0.946915803,0.896318804,0.055271335,0.247488442,0.320746345,0.287683701,0.636652634,0.392734554,0.448907208
10295,0.114859861,0.742723123,0.545947069,0.383898018,0.91748235,0.876658769,0.411015523,0.517867943,0.945862637,0.238741959,0.757597969,0.26155881,0.156166858,0.60385162,0.187970294,0.970086732,0.968391357,0.724149099,0.745812779,0.939694787,0.742178038,0.886472897,0.000251877,0.717492958,0.155309272
10296,0.331484438,0.748557247,0.275535345,0.481359509,0.174244707,0.18803339,0.61607102,0.042434883,0.912736006,0.608197284,0.891884714,0.179089934,0.795163367,0.631416691,0.88000013,0.39512783,0.367151939,0.679465866,0.486834279,0.241549712,0.852256232,0.413748338,0.225391732,0.120149295,0.875953159
10297,0.832059232,0.424032485,0.915164165,0.737759405,0.745509315,0.175824562,0.631080473,0.250140727,0.232445438,0.889845395,0.646247289,0.203721157,0.930265551,0.55196374,0.995424748,0.832214838,0.845257746,0.408996646,0.595675197,0.562220463,0.746951038,0.746345963,0.39571393,0.728865933,0.102013418
10298,0.645545055,0.99939316,0.939476412,0.698694275,0.882276481,0.549208654,0.695990834,0.744933826,0.133857425,0.13706407,0.812639882,0.598709388,0.232551862,0.478876032,0.465540501,0.918565997,0.017320645,0.799719545,0.349984514,0.502117874,0.023678771,0.770362507,0.115484833,0.206682885,0.205760658
10299,0.919126777,0.887817692,0.511810638,0.663460618,0.452888839,0.172051085,0.26873423,0.415525799,0.128401629,0.653957209,0.638924943,0.012246679,0.369757152,0.759895216,0.643676141,0.401253886,0.711764922,0.89828315,0.977674205,0.953634352,0.732733692,0.187862402,0.378964428,0.86025471,0.289376008
10300,0.004806791,0.168982869,0.814380403,0.855256313,0.405597736,0.026388601,0.909540954,0.547249165,0.01987012,0.618366629,0.04211753,0.339820093,0.401047974,0.6654482,0.718990285,0.078043454,0.108330438,0.460297179,0.246839188,0.717006523,0.871171865,0.067241803,0.849574121,0.538835376,0.458538826
10301,0.199274134,0.484657182,0.69950117,0.872633242,0.908735696,0.089033239,0.211181431,0.671196188,0.462841982,0.596750984,0.853458182,0.201887927,0.513790803,0.173604554,0.245928322,0.221884938,0.668777724,0.432437045,0.766462631,0.896309904,0.869356849,0.256022698,0.269637089,0.566075793,0.398916864
10302,0.162606975,0.502851345,0.865793239,0.299486089,0.769733169,0.813848809,0.113826932,0.026415135,0.36428125,0.173959808,0.85365885,0.553979847,0.878424286,0.026492649,0.517337517,0.827902175,0.536839344,0.681216405,0.971902112,0.250386667,0.866799235,0.218248827,0.145295658,0.259784982,0.551484091
10303,0.074015482,0.974570865,0.657974457,0.98644683,0.929819355,0.292290208,0.463536535,0.627462615,0.825199723,0.445446489,0.712581514,0.121052473,0.55077888,0.027696906,0.669977358,0.352089646,0.631979288,0.043022778,0.606253313,0.865981641,0.072957555,0.869527845,0.024525285,0.779957344,0.512555823
10304,0.513330216,0.84628883,0.88760661,0.565120178,0.082466598,0.096182987,0.916495316,0.996980231,0.754704414,0.936183344,0.525287515,0.86442158,0.993583254,0.716989318,0.826776955,0.488458314,0.206575467,0.646893656,0.458580886,0.631434777,0.833023969,0.498658328,0.595404645,0.933908014,0.395300797
10305,0.194723412,0.387253522,0.318584942,0.672722317,0.745258134,0.206218281,0.4118512,0.830039731,0.861098514,0.723888903,0.848812392,0.389611587,0.373664088,0.095876065,0.681957172,0.538799717,0.03838887,0.593324482,0.620055669,0.563600741,0.468086796,0.930066125,0.604357671,0.482348514,0.872366273
10306,0.975798224,0.758261346,0.52961937,0.596372197,0.93159789,0.441121183,0.505953484,0.199061255,0.625743557,0.831439304,0.352121865,0.937826424,0.264607189,0.519225817,0.384804997,0.242037916,0.118727873,0.915472937,0.859565066,0.944876281,0.403260208,0.750104674,0.601907531,0.078066893,0.207298719
10307,0.047974944,0.887882544,0.41772769,0.686720912,0.523582336,0.208382648,0.372118702,0.652577574,0.33944726,0.45119363,0.528134337,0.310523344,0.466292053,0.148581645,0.899582409,0.012338228,0.43268996,0.942014575,0.673263054,0.912543739,0.259772291,0.841294963,0.694656209,0.114412506,0.308061238
10308,0.805118434,0.963506915,0.888996565,0.360740692,0.589872463,0.846886639,0.351896566,0.872414232,0.225700816,0.605747695,0.624175883,0.682181079,0.773863944,0.55168721,0.00427575,0.3177814,0.663164558,0.634771773,0.493737458,0.332626702,0.745553597,0.837179459,0.161865171,0.963265143,0.643068334
